{
"skeleton": { "hash": "6RapIbj5Z+33WRSeNX0CqqF5+JE", "spine": "3.7.94", "width": 207.21, "height": 125.49, "images": "./top2/", "audio": "" },
"bones": [
	{ "name": "root" },
	{ "name": "all", "parent": "root", "y": 3.99, "scaleX": 0.176, "scaleY": 0.176, "color": "ff0000ff" },
	{
		"name": "Body",
		"parent": "all",
		"length": 97.29,
		"rotation": 90.72,
		"x": 0.51,
		"y": 14.08,
		"scaleX": 0.934,
		"scaleY": 0.934
	},
	{
		"name": "Head",
		"parent": "Body",
		"length": 80.44,
		"rotation": -1.53,
		"x": 134.16,
		"y": 0.55,
		"color": "fffc00ff"
	},
	{ "name": "Body2", "parent": "Body", "length": 121.51, "rotation": -179.74, "x": -0.12, "y": 0.62 },
	{ "name": "Body3", "parent": "Body2", "x": 84.8, "y": -1.26 },
	{ "name": "Legs", "parent": "Body3", "length": 62.66, "rotation": -19.58, "x": 7.83, "y": -52.41 },
	{ "name": "Tail", "parent": "Body2", "x": 260.62, "y": -3.15 },
	{ "name": "Tail3", "parent": "Body2", "x": 400.4, "y": -6.7 },
	{ "name": "Tail5", "parent": "Body2", "x": 542.52, "y": -9.7 },
	{ "name": "Body4", "parent": "Body2", "x": 84.8, "y": -1.26, "scaleY": -1 },
	{ "name": "Legs2", "parent": "Body4", "length": 62.66, "rotation": -19.58, "x": 7.83, "y": -55.47 },
	{
		"name": "wing2",
		"parent": "Body",
		"rotation": -6.07,
		"x": 56.44,
		"y": 12.81,
		"scaleX": 1.143,
		"scaleY": -1.143
	},
	{ "name": "Wing2", "parent": "wing2", "x": -14.66, "y": 169.62, "color": "84b802ff" },
	{ "name": "Wing6", "parent": "wing2", "x": -15.07, "y": 286.63, "color": "84b802ff" },
	{ "name": "Wing7", "parent": "wing2", "x": -24.27, "y": 426.37, "color": "84b802ff" },
	{ "name": "Wing8", "parent": "wing2", "x": -29.98, "y": 557.99, "color": "84b802ff" },
	{
		"name": "wing3",
		"parent": "Body",
		"rotation": 5.4,
		"x": 59.7,
		"y": -10.06,
		"scaleX": 1.143,
		"scaleY": 1.14
	},
	{ "name": "Wing3", "parent": "wing3", "x": -14.66, "y": 169.62, "color": "84b802ff" },
	{ "name": "Wing9", "parent": "wing3", "x": -15.07, "y": 286.63, "color": "84b802ff" },
	{ "name": "Wing10", "parent": "wing3", "x": -24.27, "y": 426.37, "color": "84b802ff" },
	{ "name": "Wing11", "parent": "wing3", "x": -29.98, "y": 557.99, "color": "84b802ff" }
],
"slots": [
	{ "name": "Legs", "bone": "Legs", "attachment": "Legs" },
	{ "name": "Legs2", "bone": "Legs2", "attachment": "Legs" },
	{ "name": "Body", "bone": "Body", "attachment": "Body" },
	{ "name": "Tail", "bone": "Tail", "attachment": "Tail" },
	{ "name": "Tail2", "bone": "Tail3", "attachment": "Tail" },
	{ "name": "Tail3", "bone": "Tail5", "attachment": "Tail" },
	{ "name": "Wing5", "bone": "Wing2", "attachment": "Wing" },
	{ "name": "Wing9", "bone": "Wing3", "attachment": "Wing" },
	{ "name": "Wing6", "bone": "Wing6", "attachment": "Wing" },
	{ "name": "Wing10", "bone": "Wing9", "attachment": "Wing" },
	{ "name": "Wing7", "bone": "Wing7", "attachment": "Wing" },
	{ "name": "Wing11", "bone": "Wing10", "attachment": "Wing" },
	{ "name": "Wing8", "bone": "Wing8", "attachment": "Wing" },
	{ "name": "Wing12", "bone": "Wing11", "attachment": "Wing" },
	{ "name": "Head", "bone": "Head", "attachment": "Head" }
],
"skins": {
	"default": {
		"Body": {
			"Body": {
				"type": "mesh",
				"uvs": [ 1, 1, 0.5, 1, 0, 1, 0, 0.75, 0, 0.5, 0, 0.25, 0, 0, 0.5, 0, 1, 0, 1, 0.25, 1, 0.5, 1, 0.75, 0.5, 0.75, 0.5, 0.5, 0.5, 0.25 ],
				"triangles": [ 0, 1, 11, 1, 12, 11, 11, 12, 10, 12, 13, 10, 1, 2, 12, 2, 3, 12, 12, 3, 13, 3, 4, 13, 4, 5, 14, 13, 14, 9, 9, 14, 8, 14, 7, 8, 14, 5, 7, 5, 6, 7, 10, 13, 9, 13, 4, 14 ],
				"vertices": [ 2, 2, -162.33, -74.75, 0.05721, 4, 162.55, 74.63, 0.94279, 2, 2, -161.38, 1.24, 5.6E-4, 4, 161.26, -1.36, 0.99944, 2, 2, -160.43, 77.24, 0.05578, 4, 159.96, -77.35, 0.94422, 2, 2, -93.68, 76.4, 0.22267, 4, 93.22, -76.21, 0.77733, 2, 2, -26.94, 75.57, 0.50068, 4, 26.48, -75.07, 0.49932, 2, 2, 39.81, 74.74, 0.77821, 4, -40.26, -73.94, 0.22179, 2, 2, 106.55, 73.9, 0.94464, 4, -107, -72.8, 0.05536, 2, 2, 105.6, -2.09, 0.99995, 4, -105.71, 3.19, 5.0E-5, 2, 2, 104.65, -78.09, 0.94495, 4, -104.41, 79.18, 0.05505, 2, 2, 37.91, -77.25, 0.7794, 4, -37.67, 78.04, 0.2206, 2, 2, -28.84, -76.42, 0.50273, 4, 29.07, 76.9, 0.49727, 2, 2, -95.58, -75.58, 0.22497, 4, 95.81, 75.77, 0.77503, 1, 4, 94.52, -0.22, 1, 2, 2, -27.89, -0.42, 0.48907, 4, 27.78, 0.91, 0.51093, 1, 2, 38.86, -1.26, 1 ],
				"hull": 12,
				"edges": [ 0, 2, 2, 4, 4, 6, 6, 8, 8, 10, 10, 12, 12, 14, 14, 16, 16, 18, 18, 20, 20, 22, 22, 0 ],
				"width": 152,
				"height": 267
			}
		},
		"Head": {
			"Head": { "x": -28.18, "y": -4.4, "rotation": -89.18, "width": 188, "height": 221 }
		},
		"Legs": {
			"Legs": {
				"type": "mesh",
				"uvs": [ 0.92296, 0, 1, 0.01062, 1, 0.10753, 0.6166, 0.61299, 0.56822, 0.77074, 0.45924, 1, 0, 0.9843, 0.00424, 0.9412, 0.06528, 0.80227, 0.12569, 0.20532, 0.80108, 0, 0.27797, 0.69498 ],
				"triangles": [ 0, 1, 2, 2, 3, 9, 10, 2, 9, 2, 10, 0, 11, 9, 3, 4, 11, 3, 11, 8, 9, 8, 11, 4, 5, 8, 4, 7, 8, 5, 6, 7, 5 ],
				"vertices": [ -34.79, 14.15, -35.1, 21.03, -18.66, 26.57, 77.61, 24.18, 105.7, 29.24, 147.58, 33.45, 157.51, -4.88, 150.09, -7, 124.84, -9.95, 21.91, -39.11, -31.45, 4.22, 100.81, 1.26 ],
				"hull": 11,
				"edges": [ 0, 20, 0, 2, 2, 4, 4, 6, 6, 8, 8, 10, 10, 12, 12, 14, 18, 20, 14, 16, 16, 18, 16, 22, 22, 8 ],
				"width": 86,
				"height": 179
			}
		},
		"Legs2": {
			"Legs": {
				"type": "mesh",
				"uvs": [ 0.92296, 0, 1, 0.01062, 1, 0.10753, 0.6166, 0.61299, 0.5522, 0.77415, 0.46362, 0.99849, 0.001, 0.99854, 0, 0.96766, 0.06528, 0.80227, 0.12854, 0.21852, 0.80108, 0, 0.27797, 0.69498 ],
				"triangles": [ 0, 1, 2, 2, 3, 9, 10, 2, 9, 2, 10, 0, 11, 9, 3, 4, 11, 3, 11, 8, 9, 8, 11, 4, 5, 8, 4, 7, 8, 5, 6, 7, 5 ],
				"vertices": [ -34.79, 14.15, -35.1, 21.03, -18.66, 26.57, 77.61, 24.18, 106.72, 28.13, 147.21, 33.72, 159.9, -3.99, 154.69, -5.83, 124.84, -9.95, 24.07, -38.13, -31.45, 4.22, 100.81, 1.26 ],
				"hull": 11,
				"edges": [ 0, 20, 0, 2, 2, 4, 4, 6, 6, 8, 8, 10, 10, 12, 12, 14, 18, 20, 14, 16, 16, 18, 16, 22, 22, 8 ],
				"width": 86,
				"height": 179
			}
		},
		"Tail": {
			"Tail": {
				"type": "mesh",
				"uvs": [ 0, 0.33333, 0, 0.25496, 0, 0.16894, 0, 0.08047, 0, 0, 1, 0, 1, 0.0817, 1, 0.17017, 1, 0.25618, 1, 0.33333 ],
				"triangles": [ 2, 6, 7, 2, 3, 6, 3, 5, 6, 3, 4, 5, 0, 8, 9, 0, 1, 8, 1, 7, 8, 1, 2, 7 ],
				"vertices": [ 1, 7, -2.56, -88.87, 1, 2, 7, -35.79, -88.3, 0.76487, 4, 224.83, -91.45, 0.23513, 2, 7, -72.25, -87.68, 0.50683, 4, 188.37, -90.83, 0.49317, 2, 7, -109.76, -87.04, 0.24141, 4, 150.86, -90.19, 0.75859, 1, 4, 116.75, -89.61, 1, 1, 4, 119.62, 79.36, 1, 2, 7, -106.36, 81.92, 0.2451, 4, 154.26, 78.77, 0.7549, 2, 7, -68.86, 81.28, 0.51051, 4, 191.76, 78.13, 0.48949, 2, 7, -32.39, 80.66, 0.76855, 4, 228.23, 77.51, 0.23145, 1, 7, 0.32, 80.11, 1 ],
				"hull": 10,
				"edges": [ 8, 10, 18, 0, 0, 2, 2, 4, 14, 16, 16, 18, 4, 6, 6, 8, 10, 12, 12, 14 ],
				"width": 169,
				"height": 424
			}
		},
		"Tail2": {
			"Tail": {
				"type": "mesh",
				"uvs": [ 0, 0.66667, 0, 0.60113, 0, 0.51266, 0, 0.43525, 0, 0.33333, 1, 0.33333, 1, 0.4205, 1, 0.50652, 1, 0.59745, 1, 0.66667 ],
				"triangles": [ 2, 3, 7, 3, 6, 7, 3, 4, 6, 4, 5, 6, 9, 1, 8, 9, 0, 1, 1, 2, 8, 2, 7, 8 ],
				"vertices": [ 1, 8, -1.02, -87.73, 1, 2, 8, -28.8, -87.25, 0.8034, 7, 110.97, -90.8, 0.1966, 2, 8, -66.31, -86.61, 0.53799, 7, 73.46, -90.16, 0.46201, 2, 8, -99.13, -86.06, 0.30575, 7, 40.65, -89.6, 0.69425, 1, 7, -2.56, -88.87, 1, 1, 7, 0.32, 80.11, 1, 2, 8, -102.5, 83.03, 0.26151, 7, 37.27, 79.48, 0.73849, 2, 8, -66.04, 82.41, 0.51955, 7, 73.74, 78.86, 0.48045, 2, 8, -27.49, 81.75, 0.79234, 7, 112.28, 78.2, 0.20766, 1, 8, 1.85, 81.25, 1 ],
				"hull": 10,
				"edges": [ 8, 10, 18, 0, 4, 6, 6, 8, 10, 12, 12, 14, 0, 2, 2, 4, 14, 16, 16, 18 ],
				"width": 169,
				"height": 424
			}
		},
		"Tail3": {
			"Tail": {
				"type": "mesh",
				"uvs": [ 1, 0.74907, 1, 0.83201, 1, 0.92056, 1, 1, 0, 1, 0, 0.90932, 0, 0.82498, 0, 0.74767, 0, 0.66667, 1, 0.66667 ],
				"triangles": [ 4, 2, 3, 4, 5, 2, 5, 1, 2, 5, 6, 1, 6, 0, 1, 6, 7, 0, 7, 9, 0, 7, 8, 9 ],
				"vertices": [ 2, 8, 35.6, 80.68, 0.76121, 9, -106.53, 83.68, 0.23879, 2, 8, 69.56, 80.1, 0.52084, 9, -72.56, 83.1, 0.47916, 2, 8, 109.49, 79.42, 0.23831, 9, -32.63, 82.42, 0.76169, 1, 9, 1.04, 81.85, 1, 1, 9, -1.83, -87.13, 1, 2, 8, 101.85, -89.48, 0.27204, 9, -40.28, -86.47, 0.72796, 2, 8, 66.09, -88.87, 0.52506, 9, -76.03, -85.86, 0.47494, 2, 8, 33.32, -88.31, 0.75699, 9, -108.81, -85.31, 0.24301, 1, 8, -1.02, -87.73, 1, 1, 8, 1.85, 81.25, 1 ],
				"hull": 10,
				"edges": [ 6, 8, 16, 18, 12, 14, 14, 16, 2, 0, 0, 18, 8, 10, 10, 12, 2, 4, 4, 6 ],
				"width": 169,
				"height": 424
			}
		},
		"Wing10": {
			"Wing": {
				"type": "mesh",
				"uvs": [ 0.75, 0.49356, 0.75, 1, 0.5, 1, 0.5, 0, 0.75, 0 ],
				"triangles": [ 2, 3, 0, 3, 4, 0, 2, 0, 1 ],
				"vertices": [ 1, 18, 10.24, -0.35, 1, 1, 18, -119.9, 1.28, 1, 1, 19, -123.6, 0.61, 1, 1, 19, 133.38, -2.6, 1, 1, 18, 137.08, -1.93, 1 ],
				"hull": 5,
				"edges": [ 4, 6, 6, 8, 2, 4, 2, 0, 0, 8 ],
				"width": 675,
				"height": 257
			}
		},
		"Wing11": {
			"Wing": {
				"type": "mesh",
				"uvs": [ 0.5, 0.49253, 0.5, 1, 0.25, 1, 0.25, 0, 0.5, 0 ],
				"triangles": [ 2, 3, 0, 3, 4, 0, 2, 0, 1 ],
				"vertices": [ 1, 19, 6.81, -1.02, 1, 1, 19, -123.6, 0.61, 1, 1, 20, -129.77, 0.55, 1, 1, 20, 127.21, -2.66, 1, 1, 19, 133.38, -2.6, 1 ],
				"hull": 5,
				"edges": [ 4, 6, 6, 8, 2, 4, 2, 0, 0, 8 ],
				"width": 675,
				"height": 257
			}
		},
		"Wing12": {
			"Wing": {
				"type": "mesh",
				"uvs": [ 0.25, 0.28615, 0.25, 1, 0, 1, 0, 0, 0.25, 0 ],
				"triangles": [ 2, 3, 0, 3, 4, 0, 2, 0, 1 ],
				"vertices": [ 1, 20, 53.67, -1.74, 1, 1, 20, -129.77, 0.55, 1, 1, 21, -136.75, 0.27, 1, 1, 21, 120.23, -2.95, 1, 1, 20, 127.21, -2.66, 1 ],
				"hull": 5,
				"edges": [ 4, 6, 6, 8, 2, 4, 0, 8, 0, 2 ],
				"width": 675,
				"height": 257
			}
		},
		"Wing5": {
			"Wing": {
				"type": "mesh",
				"uvs": [ 1, 0.4623, 1, 0.78796, 1, 1, 0.75, 1, 0.75, 0, 1, 0 ],
				"triangles": [ 3, 4, 0, 4, 5, 0, 1, 3, 0, 3, 1, 2 ],
				"vertices": [ 1, 12, 26.23, 41.34, 1, 1, 12, -57.46, 42.39, 1, 1, 12, -111.95, 43.07, 1, 1, 13, -119.9, 1.28, 1, 1, 13, 137.08, -1.93, 1, 1, 12, 145.03, 39.86, 1 ],
				"hull": 6,
				"edges": [ 6, 8, 8, 10, 4, 6, 0, 10, 8, 0, 0, 2, 2, 4, 6, 2 ],
				"width": 675,
				"height": 257
			}
		},
		"Wing6": {
			"Wing": {
				"type": "mesh",
				"uvs": [ 0.75, 0.49356, 0.75, 1, 0.5, 1, 0.5, 0, 0.75, 0 ],
				"triangles": [ 2, 3, 0, 3, 4, 0, 2, 0, 1 ],
				"vertices": [ 1, 13, 10.24, -0.35, 1, 1, 13, -119.9, 1.28, 1, 1, 14, -123.6, 0.61, 1, 1, 14, 133.38, -2.6, 1, 1, 13, 137.08, -1.93, 1 ],
				"hull": 5,
				"edges": [ 4, 6, 6, 8, 2, 4, 2, 0, 0, 8 ],
				"width": 675,
				"height": 257
			}
		},
		"Wing7": {
			"Wing": {
				"type": "mesh",
				"uvs": [ 0.5, 0.49253, 0.5, 1, 0.25, 1, 0.25, 0, 0.5, 0 ],
				"triangles": [ 2, 3, 0, 3, 4, 0, 2, 0, 1 ],
				"vertices": [ 1, 14, 6.81, -1.02, 1, 1, 14, -123.6, 0.61, 1, 1, 15, -129.77, 0.55, 1, 1, 15, 127.21, -2.66, 1, 1, 14, 133.38, -2.6, 1 ],
				"hull": 5,
				"edges": [ 4, 6, 6, 8, 2, 4, 2, 0, 0, 8 ],
				"width": 675,
				"height": 257
			}
		},
		"Wing8": {
			"Wing": {
				"type": "mesh",
				"uvs": [ 0.25, 0.28615, 0.25, 1, 0, 1, 0, 0, 0.25, 0 ],
				"triangles": [ 2, 3, 0, 3, 4, 0, 2, 0, 1 ],
				"vertices": [ 1, 15, 53.67, -1.74, 1, 1, 15, -129.77, 0.55, 1, 1, 16, -136.75, 0.27, 1, 1, 16, 120.23, -2.95, 1, 1, 15, 127.21, -2.66, 1 ],
				"hull": 5,
				"edges": [ 4, 6, 6, 8, 2, 4, 0, 8, 0, 2 ],
				"width": 675,
				"height": 257
			}
		},
		"Wing9": {
			"Wing": {
				"type": "mesh",
				"uvs": [ 1, 0.4623, 1, 0.78796, 1, 1, 0.75, 1, 0.75, 0, 1, 0 ],
				"triangles": [ 3, 4, 0, 4, 5, 0, 1, 3, 0, 3, 1, 2 ],
				"vertices": [ 1, 17, 26.23, 41.34, 1, 1, 17, -57.46, 42.39, 1, 1, 17, -111.95, 43.07, 1, 1, 18, -119.9, 1.28, 1, 1, 18, 137.08, -1.93, 1, 1, 17, 145.03, 39.86, 1 ],
				"hull": 6,
				"edges": [ 6, 8, 8, 10, 4, 6, 0, 10, 8, 0, 0, 2, 2, 4, 6, 2 ],
				"width": 675,
				"height": 257
			}
		}
	}
},
"animations": {
	"fly": {
		"slots": {
			"Tail": {
				"color": [
					{
						"time": 0,
						"color": "bebebeff",
						"curve": [ 0.25, 0, 0.75, 1 ]
					},
					{
						"time": 0.1,
						"color": "aeaeaeff",
						"curve": [ 0.25, 0, 0.75, 1 ]
					},
					{
						"time": 0.2,
						"color": "a7a7a7ff",
						"curve": [ 0.25, 0, 0.75, 1 ]
					},
					{
						"time": 0.8667,
						"color": "ffffffff",
						"curve": [ 0.25, 0, 0.75, 1 ]
					},
					{ "time": 1.3333, "color": "bebebeff" }
				]
			},
			"Tail2": {
				"color": [
					{
						"time": 0,
						"color": "cfcfcfff",
						"curve": [ 0.25, 0, 0.75, 1 ]
					},
					{
						"time": 0.1,
						"color": "bdbdbdff",
						"curve": [ 0.25, 0, 0.75, 1 ]
					},
					{
						"time": 0.3333,
						"color": "a9a9a9ff",
						"curve": [ 0.25, 0, 0.75, 1 ]
					},
					{
						"time": 1,
						"color": "ffffffff",
						"curve": [ 0.25, 0, 0.75, 1 ]
					},
					{ "time": 1.3333, "color": "cfcfcfff" }
				]
			},
			"Tail3": {
				"color": [
					{
						"time": 0,
						"color": "e1e1e1ff",
						"curve": [ 0.25, 0, 0.75, 1 ]
					},
					{
						"time": 0.1,
						"color": "cdcdcdff",
						"curve": [ 0.25, 0, 0.75, 1 ]
					},
					{
						"time": 0.4333,
						"color": "a7a7a7ff",
						"curve": [ 0.25, 0, 0.75, 1 ]
					},
					{
						"time": 1.1,
						"color": "ffffffff",
						"curve": [ 0.25, 0, 0.75, 1 ]
					},
					{ "time": 1.3333, "color": "e1e1e1ff" }
				]
			},
			"Wing5": {
				"color": [
					{
						"time": 0,
						"color": "abababff",
						"curve": [ 0.25, 0, 0.75, 1 ]
					},
					{
						"time": 0.0667,
						"color": "aaaaaaff",
						"curve": [ 0.25, 0, 0.75, 1 ]
					},
					{
						"time": 0.7333,
						"color": "ffffffff",
						"curve": [ 0.25, 0, 0.75, 1 ]
					},
					{ "time": 1.3333, "color": "abababff" }
				]
			},
			"Wing6": {
				"color": [
					{
						"time": 0,
						"color": "acacacff",
						"curve": [ 0.25, 0, 0.75, 1 ]
					},
					{
						"time": 0.0667,
						"color": "a9a9a9ff",
						"curve": [ 0.25, 0, 0.75, 1 ]
					},
					{
						"time": 0.7333,
						"color": "ffffffff",
						"curve": [ 0.25, 0, 0.75, 1 ]
					},
					{ "time": 1.3333, "color": "acacacff" }
				]
			},
			"Wing7": {
				"color": [
					{
						"time": 0,
						"color": "aeaeaeff",
						"curve": [ 0.25, 0, 0.75, 1 ]
					},
					{
						"time": 0.1,
						"color": "a7a7a7ff",
						"curve": [ 0.25, 0, 0.75, 1 ]
					},
					{
						"time": 0.7667,
						"color": "ffffffff",
						"curve": [ 0.25, 0, 0.75, 1 ]
					},
					{ "time": 1.3333, "color": "aeaeaeff" }
				]
			},
			"Wing8": {
				"color": [
					{
						"time": 0,
						"color": "b4b4b4ff",
						"curve": [ 0.25, 0, 0.75, 1 ]
					},
					{
						"time": 0.1,
						"color": "a9a9a9ff",
						"curve": [ 0.25, 0, 0.75, 1 ]
					},
					{
						"time": 0.8,
						"color": "ffffffff",
						"curve": [ 0.25, 0, 0.75, 1 ]
					},
					{ "time": 1.3333, "color": "b4b4b4ff" }
				]
			},
			"Wing9": {
				"color": [
					{
						"time": 0,
						"color": "abababff",
						"curve": [ 0.25, 0, 0.75, 1 ]
					},
					{
						"time": 0.0667,
						"color": "aaaaaaff",
						"curve": [ 0.25, 0, 0.75, 1 ]
					},
					{
						"time": 0.7333,
						"color": "ffffffff",
						"curve": [ 0.25, 0, 0.75, 1 ]
					},
					{ "time": 1.3333, "color": "abababff" }
				]
			},
			"Wing10": {
				"color": [
					{
						"time": 0,
						"color": "acacacff",
						"curve": [ 0.25, 0, 0.75, 1 ]
					},
					{
						"time": 0.0667,
						"color": "a9a9a9ff",
						"curve": [ 0.25, 0, 0.75, 1 ]
					},
					{
						"time": 0.7333,
						"color": "ffffffff",
						"curve": [ 0.25, 0, 0.75, 1 ]
					},
					{ "time": 1.3333, "color": "acacacff" }
				]
			},
			"Wing11": {
				"color": [
					{
						"time": 0,
						"color": "aeaeaeff",
						"curve": [ 0.25, 0, 0.75, 1 ]
					},
					{
						"time": 0.1,
						"color": "a7a7a7ff",
						"curve": [ 0.25, 0, 0.75, 1 ]
					},
					{
						"time": 0.7667,
						"color": "ffffffff",
						"curve": [ 0.25, 0, 0.75, 1 ]
					},
					{ "time": 1.3333, "color": "aeaeaeff" }
				]
			},
			"Wing12": {
				"color": [
					{
						"time": 0,
						"color": "b4b4b4ff",
						"curve": [ 0.25, 0, 0.75, 1 ]
					},
					{
						"time": 0.1,
						"color": "a9a9a9ff",
						"curve": [ 0.25, 0, 0.75, 1 ]
					},
					{
						"time": 0.8,
						"color": "ffffffff",
						"curve": [ 0.25, 0, 0.75, 1 ]
					},
					{ "time": 1.3333, "color": "b4b4b4ff" }
				]
			}
		},
		"bones": {
			"Tail": {
				"translate": [
					{
						"time": 0,
						"x": -3.99,
						"y": 0,
						"curve": [ 0.25, 0, 0.75, 1 ]
					},
					{
						"time": 0.1,
						"x": -9.85,
						"y": 0,
						"curve": [ 0.25, 0, 0.75, 1 ]
					},
					{
						"time": 0.2,
						"x": -13,
						"y": 0,
						"curve": [ 0.25, 0, 0.75, 1 ]
					},
					{
						"time": 0.5667,
						"x": 0,
						"y": 0,
						"curve": [ 0.25, 0, 0.75, 1 ]
					},
					{
						"time": 0.8667,
						"x": -13,
						"y": 0,
						"curve": [ 0.25, 0, 0.75, 1 ]
					},
					{
						"time": 1.2333,
						"x": 0,
						"y": 0,
						"curve": [ 0.25, 0, 0.75, 1 ]
					},
					{ "time": 1.3333, "x": -3.99, "y": 0 }
				],
				"scale": [
					{
						"time": 0,
						"x": 1,
						"y": 0.969,
						"curve": [ 0.25, 0, 0.75, 1 ]
					},
					{
						"time": 0.1,
						"x": 1,
						"y": 0.924,
						"curve": [ 0.25, 0, 0.75, 1 ]
					},
					{
						"time": 0.2,
						"x": 1,
						"y": 0.9,
						"curve": [ 0.25, 0, 0.75, 1 ]
					},
					{
						"time": 0.5667,
						"x": 1,
						"y": 1,
						"curve": [ 0.25, 0, 0.75, 1 ]
					},
					{
						"time": 0.8667,
						"x": 1,
						"y": 1.1,
						"curve": [ 0.25, 0, 0.75, 1 ]
					},
					{
						"time": 1.2333,
						"x": 1,
						"y": 1,
						"curve": [ 0.25, 0, 0.75, 1 ]
					},
					{ "time": 1.3333, "x": 1, "y": 0.969 }
				]
			},
			"Tail3": {
				"translate": [
					{
						"time": 0,
						"x": -0.96,
						"y": 0,
						"curve": [ 0.25, 0, 0.75, 1 ]
					},
					{
						"time": 0.1,
						"x": -18.54,
						"y": 0,
						"curve": [ 0.25, 0, 0.75, 1 ]
					},
					{
						"time": 0.3333,
						"x": -50.4,
						"y": 0,
						"curve": [ 0.25, 0, 0.75, 1 ]
					},
					{
						"time": 0.6,
						"x": 0,
						"y": 0,
						"curve": [ 0.25, 0, 0.75, 1 ]
					},
					{
						"time": 1,
						"x": -50.4,
						"y": 0,
						"curve": [ 0.25, 0, 0.75, 1 ]
					},
					{
						"time": 1.3,
						"x": 0,
						"y": 0,
						"curve": [ 0.25, 0, 0.75, 1 ]
					},
					{ "time": 1.3333, "x": -0.96, "y": 0 }
				],
				"scale": [
					{
						"time": 0,
						"x": 1,
						"y": 0.996,
						"curve": [ 0.25, 0, 0.75, 1 ]
					},
					{
						"time": 0.1,
						"x": 1,
						"y": 0.926,
						"curve": [ 0.25, 0, 0.75, 1 ]
					},
					{
						"time": 0.3333,
						"x": 1,
						"y": 0.8,
						"curve": [ 0.25, 0, 0.75, 1 ]
					},
					{
						"time": 0.6,
						"x": 1,
						"y": 1,
						"curve": [ 0.25, 0, 0.75, 1 ]
					},
					{
						"time": 1,
						"x": 1,
						"y": 1.2,
						"curve": [ 0.25, 0, 0.75, 1 ]
					},
					{
						"time": 1.3,
						"x": 1,
						"y": 1,
						"curve": [ 0.25, 0, 0.75, 1 ]
					},
					{ "time": 1.3333, "x": 1, "y": 0.996 }
				]
			},
			"Tail5": {
				"translate": [
					{
						"time": 0,
						"x": -20.23,
						"y": 0,
						"curve": [ 0.25, 0, 0.75, 1 ]
					},
					{
						"time": 0.0667,
						"x": 0,
						"y": 0,
						"curve": [ 0.25, 0, 0.75, 1 ]
					},
					{
						"time": 0.1,
						"x": -4.25,
						"y": 0,
						"curve": [ 0.25, 0, 0.75, 1 ]
					},
					{
						"time": 0.4333,
						"x": -99.85,
						"y": 0,
						"curve": [ 0.25, 0, 0.75, 1 ]
					},
					{
						"time": 0.7667,
						"x": 0,
						"y": 0,
						"curve": [ 0.25, 0, 0.75, 1 ]
					},
					{
						"time": 1.1,
						"x": -99.85,
						"y": 0,
						"curve": [ 0.25, 0, 0.75, 1 ]
					},
					{ "time": 1.3333, "x": -20.23, "y": 0 }
				],
				"scale": [
					{
						"time": 0,
						"x": 1,
						"y": 1.061,
						"curve": [ 0.25, 0, 0.75, 1 ]
					},
					{
						"time": 0.0667,
						"x": 1,
						"y": 1,
						"curve": [ 0.25, 0, 0.75, 1 ]
					},
					{
						"time": 0.1,
						"x": 1,
						"y": 0.987,
						"curve": [ 0.25, 0, 0.75, 1 ]
					},
					{
						"time": 0.4333,
						"x": 1,
						"y": 0.7,
						"curve": [ 0.25, 0, 0.75, 1 ]
					},
					{
						"time": 0.7667,
						"x": 1,
						"y": 1,
						"curve": [ 0.25, 0, 0.75, 1 ]
					},
					{
						"time": 1.1,
						"x": 1,
						"y": 1.3,
						"curve": [ 0.25, 0, 0.75, 1 ]
					},
					{ "time": 1.3333, "x": 1, "y": 1.061 }
				]
			},
			"Wing2": {
				"translate": [
					{
						"time": 0,
						"x": -1.31,
						"y": -66.77,
						"curve": [ 0.25, 0, 0.75, 1 ]
					},
					{
						"time": 0.0667,
						"x": -1.37,
						"y": -71.7,
						"curve": [ 0.25, 0, 0.75, 1 ]
					},
					{
						"time": 0.4,
						"x": -0.91,
						"y": -24.16,
						"curve": [ 0.25, 0, 0.75, 1 ]
					},
					{
						"time": 0.7333,
						"x": -1.37,
						"y": -96.69,
						"curve": [ 0.25, 0, 0.75, 1 ]
					},
					{
						"time": 1.0333,
						"x": 0,
						"y": 41,
						"curve": [ 0.25, 0, 0.75, 1 ]
					},
					{ "time": 1.3333, "x": -1.31, "y": -66.77 }
				],
				"scale": [
					{
						"time": 0,
						"x": 0.807,
						"y": 1,
						"curve": [ 0.25, 0, 0.75, 1 ]
					},
					{
						"time": 0.0667,
						"x": 0.8,
						"y": 1,
						"curve": [ 0.25, 0, 0.75, 1 ]
					},
					{
						"time": 0.7333,
						"x": 1.2,
						"y": 1,
						"curve": [ 0.25, 0, 0.75, 1 ]
					},
					{ "time": 1.3333, "x": 0.807, "y": 1 }
				]
			},
			"Wing6": {
				"translate": [
					{
						"time": 0,
						"x": -2.22,
						"y": -150.87,
						"curve": [ 0.25, 0, 0.75, 1 ]
					},
					{
						"time": 0.0667,
						"x": -2.55,
						"y": -171.62,
						"curve": [ 0.25, 0, 0.75, 1 ]
					},
					{
						"time": 0.4,
						"x": -1.7,
						"y": -74.76,
						"curve": [ 0.25, 0, 0.75, 1 ]
					},
					{
						"time": 0.7333,
						"x": -2.55,
						"y": -207.91,
						"curve": [ 0.25, 0, 0.75, 1 ]
					},
					{
						"time": 1.0667,
						"x": 0,
						"y": -11.35,
						"curve": [ 0.25, 0, 0.75, 1 ]
					},
					{ "time": 1.3333, "x": -2.22, "y": -150.87 }
				],
				"scale": [
					{
						"time": 0,
						"x": 0.634,
						"y": 1,
						"curve": [ 0.25, 0, 0.75, 1 ]
					},
					{
						"time": 0.0667,
						"x": 0.6,
						"y": 1,
						"curve": [ 0.25, 0, 0.75, 1 ]
					},
					{
						"time": 0.7333,
						"x": 1.4,
						"y": 1,
						"curve": [ 0.25, 0, 0.75, 1 ]
					},
					{ "time": 1.3333, "x": 0.634, "y": 1 }
				]
			},
			"Wing7": {
				"translate": [
					{
						"time": 0,
						"x": -2.99,
						"y": -233.89,
						"curve": [ 0.25, 0, 0.75, 1 ]
					},
					{
						"time": 0.1,
						"x": -3.95,
						"y": -254.33,
						"curve": [ 0.25, 0, 0.75, 1 ]
					},
					{
						"time": 0.3333,
						"x": -3.11,
						"y": -201.35,
						"curve": [ 0.25, 0, 0.75, 1 ]
					},
					{
						"time": 0.4667,
						"x": -2.63,
						"y": -181.51,
						"curve": [ 0.25, 0, 0.75, 1 ]
					},
					{
						"time": 0.7667,
						"x": -3.95,
						"y": -311.73,
						"curve": [ 0.25, 0, 0.75, 1 ]
					},
					{
						"time": 1.1,
						"x": 0,
						"y": -50.97,
						"curve": [ 0.25, 0, 0.75, 1 ]
					},
					{ "time": 1.3333, "x": -2.99, "y": -233.89 }
				],
				"scale": [
					{
						"time": 0,
						"x": 0.498,
						"y": 1,
						"curve": [ 0.25, 0, 0.75, 1 ]
					},
					{
						"time": 0.1,
						"x": 0.4,
						"y": 1,
						"curve": [ 0.25, 0, 0.75, 1 ]
					},
					{
						"time": 0.7667,
						"x": 1.58,
						"y": 1,
						"curve": [ 0.25, 0, 0.75, 1 ]
					},
					{ "time": 1.3333, "x": 0.498, "y": 1 }
				]
			},
			"Wing8": {
				"translate": [
					{
						"time": 0,
						"x": -3.56,
						"y": -308.19,
						"curve": [ 0.25, 0, 0.75, 1 ]
					},
					{
						"time": 0.1,
						"x": -5.63,
						"y": -372.75,
						"curve": [ 0.25, 0, 0.75, 1 ]
					},
					{
						"time": 0.4667,
						"x": -3.75,
						"y": -289.15,
						"curve": [ 0.25, 0, 0.75, 1 ]
					},
					{
						"time": 0.8,
						"x": -5.63,
						"y": -435.89,
						"curve": [ 0.25, 0, 0.75, 1 ]
					},
					{
						"time": 1.1,
						"x": 0,
						"y": -98.79,
						"curve": [ 0.25, 0, 0.75, 1 ]
					},
					{ "time": 1.3333, "x": -3.56, "y": -308.19 }
				],
				"scale": [
					{
						"time": 0,
						"x": 0.408,
						"y": 1,
						"curve": [ 0.25, 0, 0.75, 1 ]
					},
					{
						"time": 0.1,
						"x": 0.2,
						"y": 1,
						"curve": [ 0.25, 0, 0.75, 1 ]
					},
					{
						"time": 0.8,
						"x": 1.8,
						"y": 1,
						"curve": [ 0.25, 0, 0.75, 1 ]
					},
					{ "time": 1.3333, "x": 0.408, "y": 1 }
				]
			},
			"Body": {
				"scale": [
					{
						"time": 0,
						"x": 0.986,
						"y": 0.986,
						"curve": [ 0.25, 0, 0.75, 1 ]
					},
					{
						"time": 0.2,
						"x": 1.07,
						"y": 1.07,
						"curve": [ 0.25, 0, 0.75, 1 ]
					},
					{
						"time": 0.8667,
						"x": 0.9,
						"y": 0.9,
						"curve": [ 0.25, 0, 0.75, 1 ]
					},
					{ "time": 1.3333, "x": 0.986, "y": 0.986 }
				]
			},
			"Body2": {
				"translate": [
					{
						"time": 0,
						"x": 0,
						"y": 0,
						"curve": [ 0.25, 0, 0.75, 1 ]
					},
					{
						"time": 0.6667,
						"x": 18.04,
						"y": 0,
						"curve": [ 0.25, 0, 0.75, 1 ]
					},
					{ "time": 1.3333, "x": 0, "y": 0 }
				],
				"scale": [
					{
						"time": 0,
						"x": 1.032,
						"y": 1.032,
						"curve": [ 0.25, 0, 0.75, 1 ]
					},
					{
						"time": 0.3,
						"x": 1.073,
						"y": 1.073,
						"curve": [ 0.25, 0, 0.75, 1 ]
					},
					{
						"time": 0.9667,
						"x": 0.973,
						"y": 0.973,
						"curve": [ 0.25, 0, 0.75, 1 ]
					},
					{ "time": 1.3333, "x": 1.032, "y": 1.032 }
				]
			},
			"Legs": {
				"rotate": [
					{
						"time": 0,
						"angle": 0,
						"curve": [ 0.25, 0, 0.75, 1 ]
					},
					{
						"time": 0.6667,
						"angle": 14.4,
						"curve": [ 0.25, 0, 0.75, 1 ]
					},
					{ "time": 1.3333, "angle": 0 }
				],
				"translate": [
					{
						"time": 0,
						"x": -9.57,
						"y": 10.3,
						"curve": [ 0.25, 0, 0.75, 1 ]
					},
					{
						"time": 0.6667,
						"x": 0.86,
						"y": 4.65,
						"curve": [ 0.25, 0, 0.75, 1 ]
					},
					{ "time": 1.3333, "x": -9.57, "y": 10.3 }
				]
			},
			"Legs2": {
				"rotate": [
					{
						"time": 0,
						"angle": 0,
						"curve": [ 0.25, 0, 0.75, 1 ]
					},
					{
						"time": 0.6667,
						"angle": 14.4,
						"curve": [ 0.25, 0, 0.75, 1 ]
					},
					{ "time": 1.3333, "angle": 0 }
				],
				"translate": [
					{
						"time": 0,
						"x": -9.57,
						"y": 10.3,
						"curve": [ 0.25, 0, 0.75, 1 ]
					},
					{
						"time": 0.6667,
						"x": 0.86,
						"y": 4.65,
						"curve": [ 0.25, 0, 0.75, 1 ]
					},
					{ "time": 1.3333, "x": -9.57, "y": 10.3 }
				]
			},
			"Wing3": {
				"translate": [
					{
						"time": 0,
						"x": -1.31,
						"y": -66.77,
						"curve": [ 0.25, 0, 0.75, 1 ]
					},
					{
						"time": 0.0667,
						"x": -1.37,
						"y": -71.7,
						"curve": [ 0.25, 0, 0.75, 1 ]
					},
					{
						"time": 0.4,
						"x": -0.91,
						"y": -24.16,
						"curve": [ 0.25, 0, 0.75, 1 ]
					},
					{
						"time": 0.7333,
						"x": -1.37,
						"y": -96.69,
						"curve": [ 0.25, 0, 0.75, 1 ]
					},
					{
						"time": 1.0333,
						"x": 0,
						"y": 41,
						"curve": [ 0.25, 0, 0.75, 1 ]
					},
					{ "time": 1.3333, "x": -1.31, "y": -66.77 }
				],
				"scale": [
					{
						"time": 0,
						"x": 0.807,
						"y": 1,
						"curve": [ 0.25, 0, 0.75, 1 ]
					},
					{
						"time": 0.0667,
						"x": 0.8,
						"y": 1,
						"curve": [ 0.25, 0, 0.75, 1 ]
					},
					{
						"time": 0.7333,
						"x": 1.2,
						"y": 1,
						"curve": [ 0.25, 0, 0.75, 1 ]
					},
					{ "time": 1.3333, "x": 0.807, "y": 1 }
				]
			},
			"Wing9": {
				"translate": [
					{
						"time": 0,
						"x": -2.22,
						"y": -150.87,
						"curve": [ 0.25, 0, 0.75, 1 ]
					},
					{
						"time": 0.0667,
						"x": -2.55,
						"y": -171.62,
						"curve": [ 0.25, 0, 0.75, 1 ]
					},
					{
						"time": 0.4,
						"x": -1.7,
						"y": -74.76,
						"curve": [ 0.25, 0, 0.75, 1 ]
					},
					{
						"time": 0.7333,
						"x": -2.55,
						"y": -207.91,
						"curve": [ 0.25, 0, 0.75, 1 ]
					},
					{
						"time": 1.0667,
						"x": 0,
						"y": -11.35,
						"curve": [ 0.25, 0, 0.75, 1 ]
					},
					{ "time": 1.3333, "x": -2.22, "y": -150.87 }
				],
				"scale": [
					{
						"time": 0,
						"x": 0.634,
						"y": 1,
						"curve": [ 0.25, 0, 0.75, 1 ]
					},
					{
						"time": 0.0667,
						"x": 0.6,
						"y": 1,
						"curve": [ 0.25, 0, 0.75, 1 ]
					},
					{
						"time": 0.7333,
						"x": 1.4,
						"y": 1,
						"curve": [ 0.25, 0, 0.75, 1 ]
					},
					{ "time": 1.3333, "x": 0.634, "y": 1 }
				]
			},
			"Wing10": {
				"translate": [
					{
						"time": 0,
						"x": -2.99,
						"y": -233.89,
						"curve": [ 0.25, 0, 0.75, 1 ]
					},
					{
						"time": 0.1,
						"x": -3.95,
						"y": -254.33,
						"curve": [ 0.25, 0, 0.75, 1 ]
					},
					{
						"time": 0.3333,
						"x": -3.11,
						"y": -201.35,
						"curve": [ 0.25, 0, 0.75, 1 ]
					},
					{
						"time": 0.4667,
						"x": -2.63,
						"y": -181.51,
						"curve": [ 0.25, 0, 0.75, 1 ]
					},
					{
						"time": 0.7667,
						"x": -3.95,
						"y": -311.73,
						"curve": [ 0.25, 0, 0.75, 1 ]
					},
					{
						"time": 1.1,
						"x": 0,
						"y": -50.97,
						"curve": [ 0.25, 0, 0.75, 1 ]
					},
					{ "time": 1.3333, "x": -2.99, "y": -233.89 }
				],
				"scale": [
					{
						"time": 0,
						"x": 0.498,
						"y": 1,
						"curve": [ 0.25, 0, 0.75, 1 ]
					},
					{
						"time": 0.1,
						"x": 0.4,
						"y": 1,
						"curve": [ 0.25, 0, 0.75, 1 ]
					},
					{
						"time": 0.7667,
						"x": 1.58,
						"y": 1,
						"curve": [ 0.25, 0, 0.75, 1 ]
					},
					{ "time": 1.3333, "x": 0.498, "y": 1 }
				]
			},
			"Wing11": {
				"translate": [
					{
						"time": 0,
						"x": -3.56,
						"y": -308.19,
						"curve": [ 0.25, 0, 0.75, 1 ]
					},
					{
						"time": 0.1,
						"x": -5.63,
						"y": -372.75,
						"curve": [ 0.25, 0, 0.75, 1 ]
					},
					{
						"time": 0.4667,
						"x": -3.75,
						"y": -289.15,
						"curve": [ 0.25, 0, 0.75, 1 ]
					},
					{
						"time": 0.8,
						"x": -5.63,
						"y": -435.89,
						"curve": [ 0.25, 0, 0.75, 1 ]
					},
					{
						"time": 1.1,
						"x": 0,
						"y": -98.79,
						"curve": [ 0.25, 0, 0.75, 1 ]
					},
					{ "time": 1.3333, "x": -3.56, "y": -308.19 }
				],
				"scale": [
					{
						"time": 0,
						"x": 0.408,
						"y": 1,
						"curve": [ 0.25, 0, 0.75, 1 ]
					},
					{
						"time": 0.1,
						"x": 0.2,
						"y": 1,
						"curve": [ 0.25, 0, 0.75, 1 ]
					},
					{
						"time": 0.8,
						"x": 1.8,
						"y": 1,
						"curve": [ 0.25, 0, 0.75, 1 ]
					},
					{ "time": 1.3333, "x": 0.408, "y": 1 }
				]
			}
		},
		"deform": {
			"default": {
				"Legs": {
					"Legs": [
						{
							"time": 0,
							"offset": 6,
							"vertices": [ -21.46132, 9.0E-5, -9.87236, 1.8E-4, -41.70479, -5.71452, -41.70482, -5.71452, -41.7048, -5.71452, -21.46133, 9.0E-5, 0, 0, 0, 0, -9.87236 ],
							"curve": [ 0.25, 0, 0.75, 1 ]
						},
						{
							"time": 0.6667,
							"curve": [ 0.25, 0, 0.75, 1 ]
						},
						{
							"time": 1.3333,
							"offset": 6,
							"vertices": [ -21.46132, 9.0E-5, -9.87236, 1.8E-4, -41.70479, -5.71452, -41.70482, -5.71452, -41.7048, -5.71452, -21.46133, 9.0E-5, 0, 0, 0, 0, -9.87236 ]
						}
					]
				},
				"Legs2": {
					"Legs": [
						{
							"time": 0,
							"offset": 6,
							"vertices": [ -21.46134, 9.0E-5, -9.87234, 1.8E-4, -41.70482, -5.71452, -41.7048, -5.71452, -41.7048, -5.71453, -21.46134, 9.0E-5, 0, 0, 0, -1.0E-5, -9.87234 ],
							"curve": [ 0.25, 0, 0.75, 1 ]
						},
						{
							"time": 0.6667,
							"curve": [ 0.25, 0, 0.75, 1 ]
						},
						{
							"time": 1.3333,
							"offset": 6,
							"vertices": [ -21.46134, 9.0E-5, -9.87234, 1.8E-4, -41.70482, -5.71452, -41.7048, -5.71452, -41.7048, -5.71453, -21.46134, 9.0E-5, 0, 0, 0, -1.0E-5, -9.87234 ]
						}
					]
				}
			}
		},
		"drawOrder": [
			{
				"time": 0.3333,
				"offsets": [
					{ "slot": "Head", "offset": -11 }
				]
			}
		]
	}
}
}