
dragon10.png
size: 152,152
format: RGBA8888
filter: Linear,Linear
repeat: none
1
  rotate: true
  xy: 59, 19
  size: 24, 16
  orig: 24, 16
  offset: 0, 0
  index: -1
2
  rotate: false
  xy: 59, 2
  size: 16, 15
  orig: 16, 15
  offset: 0, 0
  index: -1
3
  rotate: false
  xy: 79, 54
  size: 32, 28
  orig: 32, 28
  offset: 0, 0
  index: -1
4
  rotate: true
  xy: 122, 76
  size: 17, 18
  orig: 17, 18
  offset: 0, 0
  index: -1
Layer 102 copy
  rotate: false
  xy: 122, 95
  size: 23, 22
  orig: 23, 22
  offset: 0, 0
  index: -1
Layer 97
  rotate: false
  xy: 59, 45
  size: 18, 72
  orig: 18, 72
  offset: 0, 0
  index: -1
XXX copy 2
  rotate: false
  xy: 2, 2
  size: 55, 148
  orig: 55, 148
  offset: 0, 0
  index: -1
head
  rotate: false
  xy: 79, 84
  size: 41, 33
  orig: 41, 33
  offset: 0, 0
  index: -1
ring
  rotate: false
  xy: 59, 119
  size: 91, 31
  orig: 91, 31
  offset: 0, 0
  index: -1
