
011_BubbleWyvern_3-4.png
size: 256,128
format: RGBA8888
filter: Linear,Linear
repeat: none
13
  rotate: false
  xy: 2, 8
  size: 46, 39
  orig: 46, 39
  offset: 0, 0
  index: -1
15
  rotate: false
  xy: 86, 5
  size: 27, 42
  orig: 27, 42
  offset: 0, 0
  index: -1
17
  rotate: false
  xy: 50, 3
  size: 34, 44
  orig: 34, 44
  offset: 0, 0
  index: -1
19
  rotate: false
  xy: 156, 2
  size: 78, 115
  orig: 78, 115
  offset: 0, 0
  index: -1
7
  rotate: false
  xy: 2, 49
  size: 152, 68
  orig: 152, 68
  offset: 0, 0
  index: -1
9
  rotate: false
  xy: 115, 32
  size: 23, 15
  orig: 23, 15
  offset: 0, 0
  index: -1
