{
  "__type__": "cc.AnimationClip",
  "_name": "animMergeDragons",
  "_objFlags": 0,
  "_native": "",
  "_duration": 0.4666666666666667,
  "sample": 60,
  "speed": 0.4,
  "wrapMode": 2,
  "curveData": {
    "props": {
      "y": [
        {
          "frame": 0,
          "value": 26.32
        },
        {
          "frame": 0.03333333333333333,
          "value": 26.32
        },
        {
          "frame": 0.36666666666666664,
          "value": -275.072
        },
        {
          "frame": 0.4,
          "value": -275.072
        },
        {
          "frame": 0.4666666666666667,
          "value": 26.32
        }
      ],
      "opacity": [
        {
          "frame": 0,
          "value": 0
        },
        {
          "frame": 0.03333333333333333,
          "value": 255
        },
        {
          "frame": 0.36666666666666664,
          "value": 255
        },
        {
          "frame": 0.4,
          "value": 0
        },
        {
          "frame": 0.4666666666666667,
          "value": 0
        }
      ]
    }
  },
  "events": []
}