{
  "__type__": "cc.AnimationClip",
  "_name": "choose3",
  "_objFlags": 0,
  "_native": "",
  "_duration": 0.3333333333333333,
  "sample": 60,
  "speed": 0.2,
  "wrapMode": 2,
  "curveData": {
    "props": {
      "position": [
        {
          "frame": 0,
          "value": [
            85,
            -315,
            0
          ]
        },
        {
          "frame": 0.08333333333333333,
          "value": [
            85,
            -330,
            0
          ]
        },
        {
          "frame": 0.16666666666666666,
          "value": [
            85,
            -315,
            0
          ]
        },
        {
          "frame": 0.25,
          "value": [
            85,
            -330,
            0
          ]
        },
        {
          "frame": 0.3333333333333333,
          "value": [
            85,
            -315,
            0
          ]
        }
      ],
      "scale": [
        {
          "frame": 0,
          "value": {
            "__type__": "cc.Vec2",
            "x": 1,
            "y": 1
          }
        },
        {
          "frame": 0.08333333333333333,
          "value": {
            "__type__": "cc.Vec2",
            "x": 0.95,
            "y": 0.95
          }
        },
        {
          "frame": 0.16666666666666666,
          "value": {
            "__type__": "cc.Vec2",
            "x": 1,
            "y": 1
          }
        },
        {
          "frame": 0.25,
          "value": {
            "__type__": "cc.Vec2",
            "x": 0.95,
            "y": 0.95
          }
        },
        {
          "frame": 0.3333333333333333,
          "value": {
            "__type__": "cc.Vec2",
            "x": 1,
            "y": 1
          }
        }
      ]
    }
  },
  "events": []
}