{
  "__type__": "cc.AnimationClip",
  "_name": "handMove",
  "_objFlags": 0,
  "_native": "",
  "_duration": 0.48333333333333334,
  "sample": 60,
  "speed": 0.12,
  "wrapMode": 22,
  "curveData": {
    "props": {
      "x": [
        {
          "frame": 0,
          "value": -223.711
        },
        {
          "frame": 0.16666666666666666,
          "value": -223.711
        },
        {
          "frame": 0.2,
          "value": -223.711
        },
        {
          "frame": 0.35,
          "value": 247.054
        },
        {
          "frame": 0.36666666666666664,
          "value": 247.054
        },
        {
          "frame": 0.48333333333333334,
          "value": 247.054
        }
      ],
      "opacity": [
        {
          "frame": 0,
          "value": 255
        },
        {
          "frame": 0.16666666666666666,
          "value": 255
        },
        {
          "frame": 0.2,
          "value": 0
        },
        {
          "frame": 0.35,
          "value": 0
        },
        {
          "frame": 0.36666666666666664,
          "value": 255
        }
      ]
    }
  },
  "events": []
}