{
"skeleton": { "hash": "s+lOOqmE7HU2PomUIqPvOnUnapM", "spine": "3.7.94", "width": 336.66, "height": 200.4, "images": "../../export/Elite/001_Volvaria_/img/", "audio": "" },
"bones": [
	{ "name": "root" },
	{
		"name": "body",
		"parent": "root",
		"length": 122.02,
		"rotation": 90.47,
		"x": 0.96,
		"y": 0.34,
		"scaleX": 0.24,
		"scaleY": 0.24
	},
	{ "name": "body2", "parent": "body", "length": 70.44, "rotation": 0.34, "x": 122.02 },
	{ "name": "Head", "parent": "body2", "length": 48.6, "rotation": -0.18, "x": 69.37, "y": 0.24 },
	{ "name": "body4", "parent": "body", "length": 79.21, "rotation": 179.53, "x": 0.24, "y": 0.63 },
	{ "name": "body5", "parent": "body4", "length": 87.63, "rotation": -0.46, "x": 79.21 },
	{ "name": "tail", "parent": "body5", "x": 165.12, "y": -0.59, "color": "e600ffff" },
	{ "name": "tail3", "parent": "tail", "x": 116.57, "y": 1.85, "color": "e600ffff" },
	{ "name": "tail5", "parent": "tail", "x": 234.08, "y": 2.72, "color": "e600ffff" },
	{ "name": "tail4", "parent": "tail", "x": 351.15, "y": 3.39, "color": "e600ffff" },
	{ "name": "body6", "parent": "body5", "x": 41.36, "y": 0.1 },
	{ "name": "body9", "parent": "body", "x": 31.02, "y": 0.53 },
	{ "name": "wing11", "parent": "body9", "x": -32.25, "y": 31.3, "color": "3dff01ff" },
	{ "name": "wing12", "parent": "wing11", "x": 6.41, "y": 166.8, "color": "3dff01ff" },
	{ "name": "wing13", "parent": "wing11", "x": 15.03, "y": 334.34, "color": "3dff01ff" },
	{ "name": "wing14", "parent": "wing11", "x": 19.17, "y": 501.74, "color": "3dff01ff" },
	{ "name": "wing15", "parent": "wing11", "x": 20.62, "y": 670.85, "color": "3dff01ff" },
	{ "name": "body10", "parent": "body", "x": 31.02, "y": 0.53, "scaleY": -1 },
	{ "name": "wing16", "parent": "body10", "x": -32.25, "y": 31.3, "color": "3dff01ff" },
	{ "name": "wing17", "parent": "wing16", "x": 6.41, "y": 166.8, "color": "3dff01ff" },
	{ "name": "wing18", "parent": "wing16", "x": 15.03, "y": 334.34, "color": "3dff01ff" },
	{ "name": "wing19", "parent": "wing16", "x": 19.17, "y": 501.74, "color": "3dff01ff" },
	{ "name": "wing20", "parent": "wing16", "x": 20.62, "y": 670.85, "color": "3dff01ff" },
	{ "name": "body7", "parent": "body5", "x": 41.36, "y": 0.1, "scaleY": -1 }
],
"slots": [
	{ "name": "leg", "bone": "body6", "attachment": "leg" },
	{ "name": "leg2", "bone": "body7", "attachment": "leg" },
	{ "name": "hand3", "bone": "body9", "attachment": "hand" },
	{ "name": "hand4", "bone": "body10", "attachment": "hand" },
	{ "name": "wing9", "bone": "wing12", "attachment": "wing" },
	{ "name": "wing13", "bone": "wing17", "attachment": "wing" },
	{ "name": "wing10", "bone": "wing13", "attachment": "wing" },
	{ "name": "wing14", "bone": "wing18", "attachment": "wing" },
	{ "name": "wing11", "bone": "wing14", "attachment": "wing" },
	{ "name": "wing15", "bone": "wing19", "attachment": "wing" },
	{ "name": "wing12", "bone": "wing15", "attachment": "wing" },
	{ "name": "wing16", "bone": "wing20", "attachment": "wing" },
	{ "name": "body", "bone": "body4", "attachment": "body" },
	{ "name": "Head", "bone": "Head", "attachment": "Head" },
	{ "name": "tail", "bone": "tail", "attachment": "tail" },
	{ "name": "tail2", "bone": "tail3", "attachment": "tail" },
	{ "name": "tail3", "bone": "tail5", "attachment": "tail" },
	{ "name": "tail4", "bone": "tail4", "attachment": "tail" }
],
"skins": {
	"default": {
		"Head": {
			"Head": {
				"type": "mesh",
				"uvs": [ 0.87804, 0.41592, 1, 0.93813, 1, 1, 0.50176, 0.68056, 0, 1, 0, 0.93233, 0.12731, 0.41592, 0.42938, 0, 0.59827, 0, 0.43619, 0.19428, 0.58191, 0.19903, 0.2215, 0.70822, 0.15219, 0.53772, 0.19069, 0.42339, 0.41248, 0.27697, 0.60346, 0.27697, 0.82525, 0.4274, 0.86837, 0.55377, 0.78366, 0.69819, 0.73174, 0.73974, 0.75432, 0.63681, 0.80324, 0.53225, 0.73299, 0.44403, 0.63013, 0.36888, 0.50719, 0.462, 0.37547, 0.36562, 0.24877, 0.45547, 0.20988, 0.53389, 0.26382, 0.63518, 0.26382, 0.71687 ],
				"triangles": [ 10, 9, 7, 8, 10, 7, 23, 15, 22, 15, 10, 0, 9, 6, 7, 14, 9, 10, 14, 10, 15, 6, 9, 14, 0, 10, 8, 6, 14, 13, 25, 13, 14, 0, 16, 15, 16, 22, 15, 26, 13, 25, 24, 14, 15, 24, 15, 23, 25, 14, 24, 21, 22, 16, 27, 13, 26, 12, 6, 13, 12, 13, 27, 17, 16, 0, 21, 16, 17, 28, 26, 25, 28, 25, 24, 27, 26, 28, 20, 22, 21, 3, 28, 24, 17, 18, 20, 17, 20, 21, 11, 27, 28, 12, 27, 11, 29, 28, 3, 11, 28, 29, 24, 22, 20, 22, 24, 23, 19, 20, 18, 20, 3, 24, 19, 3, 20, 5, 6, 12, 5, 12, 11, 17, 0, 1, 18, 17, 1, 4, 5, 11, 4, 11, 29, 4, 29, 3, 2, 19, 18, 1, 2, 18, 3, 19, 2 ],
				"vertices": [ -23.94, -84.6, -114.05, -110.93, -124.69, -110.82, -68.53, 0.18, -122.23, 113.17, -110.59, 113.04, -22.09, 83.55, 48.7, 15.1, 48.28, -22.73, 15.27, 13.94, 14.09, -18.68, -72.59, 63, -43.1, 78.21, -23.53, 69.37, 1.11, 19.41, 0.64, -23.37, -25.78, -72.76, -47.62, -82.18, -72.25, -62.93, -79.27, -51.22, -61.63, -56.47, -43.76, -67.63, -28.42, -52.06, -15.24, -29.16, -30.95, -1.45, -14.05, 27.87, -29.19, 56.42, -42.58, 65.28, -60.14, 53.39, -74.19, 53.54 ],
				"hull": 9,
				"edges": [ 8, 10, 10, 12, 4, 2, 0, 2, 12, 18, 18, 20, 20, 0, 6, 8, 6, 4, 16, 0, 14, 16, 14, 12, 8, 22, 22, 24, 24, 26, 26, 28, 28, 30, 30, 32, 32, 34, 34, 36, 36, 4, 4, 38, 38, 40, 40, 42, 42, 44, 44, 46, 46, 48, 48, 50, 50, 52, 52, 54, 54, 56, 56, 58, 58, 8 ],
				"width": 54,
				"height": 41
			}
		},
		"body": {
			"body": {
				"type": "mesh",
				"uvs": [ 0.59838, 0.13633, 0.60048, 0.17073, 0.6017, 0.1906, 0.79804, 0.2397, 1, 0.34472, 1, 0.43337, 0.76305, 0.60112, 0.71251, 0.60249, 0.7113, 0.63332, 0.70782, 0.72236, 0.70624, 0.76269, 0.70326, 0.83874, 0.69695, 1, 0.32437, 1, 0.31244, 0.8299, 0.30862, 0.77551, 0.3052, 0.72677, 0.29938, 0.64382, 0.29648, 0.60249, 0.23622, 0.60112, 0, 0.41427, 0, 0.36517, 0.18567, 0.24652, 0.38591, 0.18923, 0.38812, 0.16532, 0.39079, 0.13639, 0.40341, 0, 0.59003, 0, 0.50198, 0.51248, 0.49544, 0.19884, 0.49568, 0.13549, 0.49884, 0.63649, 0.50062, 0.80506, 0.49527, 0.72469 ],
				"triangles": [ 13, 32, 12, 12, 32, 11, 13, 14, 32, 10, 11, 33, 32, 14, 33, 14, 15, 33, 11, 32, 33, 15, 16, 33, 10, 33, 9, 16, 17, 33, 33, 31, 9, 33, 17, 31, 9, 31, 8, 31, 17, 28, 31, 28, 8, 28, 17, 18, 8, 28, 7, 7, 28, 6, 18, 19, 28, 30, 29, 25, 0, 29, 30, 0, 1, 29, 25, 29, 24, 25, 26, 30, 30, 27, 0, 30, 26, 27, 28, 23, 29, 23, 28, 22, 20, 22, 19, 28, 19, 22, 5, 6, 3, 6, 28, 3, 28, 2, 3, 28, 29, 2, 3, 4, 5, 20, 21, 22, 23, 24, 29, 29, 1, 2 ],
				"vertices": [ 2, 1, 144.61, -27.51, 0.08365, 2, 22.43, -27.64, 0.91635, 2, 1, 131.47, -27.97, 0.37314, 2, 9.28, -28.02, 0.62686, 2, 1, 123.87, -28.23, 0.66989, 2, 1.69, -28.24, 0.33011, 2, 1, 104.69, -80.7, 0.99084, 4, -105.11, 80.48, 0.00916, 2, 1, 64.14, -134.49, 0.933, 4, -64.99, 134.6, 0.067, 2, 1, 30.27, -134.22, 0.89862, 4, -31.13, 134.6, 0.10138, 3, 1, -33.29, -70.2, 0.45156, 4, 32.95, 71.1, 0.53572, 5, -46.83, 70.73, 0.01272, 3, 1, -33.7, -56.65, 0.30271, 4, 33.48, 57.56, 0.65286, 5, -46.2, 57.19, 0.04443, 3, 1, -45.48, -56.23, 0.14566, 4, 45.25, 57.23, 0.71936, 5, -34.42, 56.96, 0.13498, 3, 1, -79.48, -55.02, 0.00945, 4, 79.27, 56.3, 0.41547, 5, -0.4, 56.3, 0.57509, 3, 1, -94.89, -54.47, 7.4E-4, 4, 94.67, 55.88, 0.21433, 5, 15.01, 56, 0.78492, 2, 4, 123.72, 55.08, 0.02385, 5, 44.07, 55.43, 0.97615, 1, 5, 105.68, 54.24, 1, 1, 5, 106.48, -45.61, 1, 2, 4, 120.35, -49.66, 0.02803, 5, 41.53, -49.33, 0.97197, 2, 4, 99.57, -50.68, 0.17059, 5, 20.76, -50.52, 0.82941, 3, 1, -80.29, 52.89, 8.9E-4, 4, 80.95, -51.6, 0.43394, 5, 2.15, -51.59, 0.56517, 3, 1, -48.59, 54.19, 0.06916, 4, 49.27, -53.16, 0.79839, 5, -29.52, -53.4, 0.13244, 3, 1, -32.8, 54.84, 0.24606, 4, 33.48, -53.94, 0.72601, 5, -45.3, -54.3, 0.02793, 3, 1, -32.14, 70.99, 0.41001, 4, 32.95, -70.09, 0.58586, 5, -45.7, -70.46, 0.00413, 2, 1, 39.74, 133.71, 0.90095, 4, -38.42, -133.4, 0.09905, 2, 1, 58.5, 133.56, 0.91617, 4, -57.18, -133.4, 0.08383, 2, 1, 103.42, 83.43, 0.98681, 4, -102.5, -83.64, 0.01319, 2, 1, 124.87, 29.59, 0.65229, 2, 3.02, 29.58, 0.34771, 2, 1, 134, 28.93, 0.33196, 2, 12.15, 28.86, 0.66804, 2, 1, 145.04, 28.12, 0.10607, 2, 23.19, 27.98, 0.89393, 1, 2, 75.24, 23.87, 1, 1, 2, 74.53, -26.14, 1, 2, 1, 1.14, -0.51, 0.5956, 4, -0.91, 1.13, 0.4044, 2, 1, 120.96, 0.27, 0.6108, 2, -1.06, 0.28, 0.3892, 1, 2, 23.14, -0.13, 1, 3, 1, -46.23, 0.72, 2.1E-4, 4, 46.46, 0.29, 0.99964, 5, -32.75, 0.03, 1.5E-4, 2, 4, 110.86, 0.77, 2.0E-5, 5, 31.64, 1.02, 0.99998, 2, 4, 80.16, -0.66, 0.4031, 5, 0.95, -0.66, 0.5969 ],
				"hull": 28,
				"edges": [ 42, 44, 44, 46, 52, 54, 4, 6, 6, 8, 40, 42, 40, 38, 8, 10, 10, 12, 12, 14, 38, 36, 24, 26, 36, 56, 56, 14, 38, 56, 56, 12, 32, 34, 34, 36, 34, 56, 14, 16, 16, 18, 56, 16, 46, 58, 58, 4, 46, 48, 48, 58, 4, 2, 58, 2, 48, 50, 50, 52, 50, 58, 2, 0, 0, 54, 58, 0, 30, 32, 18, 66, 66, 32, 30, 66, 18, 20, 66, 20, 26, 28, 28, 30, 28, 66, 20, 22, 22, 24, 66, 22 ],
				"width": 64,
				"height": 92
			}
		},
		"hand3": {
			"hand": {
				"x": 51.25,
				"y": 105.99,
				"scaleX": 4,
				"scaleY": 4,
				"rotation": -90.47,
				"width": 29,
				"height": 26
			}
		},
		"hand4": {
			"hand": {
				"x": 51.25,
				"y": 105.99,
				"scaleX": 4,
				"scaleY": 4,
				"rotation": -90.47,
				"width": 29,
				"height": 26
			}
		},
		"leg": {
			"leg": {
				"type": "mesh",
				"uvs": [ 1, 0.55242, 0.81263, 0.44201, 0.66395, 0.40615, 0.77547, 0.47508, 0.91499, 0.80125, 1, 1, 0, 0.9847, 0.06222, 0.80502, 0.25632, 0.54946, 0, 0.45265, 0, 0.27633, 0.6299, 0, 1, 0, 0.49348, 0.45928, 0.64307, 0.45336 ],
				"triangles": [ 2, 11, 12, 10, 11, 2, 1, 2, 12, 13, 9, 10, 10, 2, 13, 3, 14, 2, 14, 13, 2, 0, 1, 12, 8, 9, 13, 13, 14, 3, 8, 13, 3, 8, 3, 4, 7, 8, 4, 6, 7, 4, 5, 6, 4 ],
				"vertices": [ 68.55, -15.62, 44.09, -30.55, 37.59, -40.4, 50.95, -33.41, 121.12, -21.88, 163.88, -14.85, 164.46, -87.85, 121.69, -78.43, 60.02, -64.84, 47.88, -88.78, 10.32, -89.08, -48.9, -43.57, -49.12, -16.56, 49, -52.75, 47.66, -41.84 ],
				"hull": 13,
				"edges": [ 10, 12, 16, 26, 26, 28, 28, 6, 6, 4, 4, 2, 0, 24, 2, 0, 18, 16, 18, 20, 22, 24, 20, 22, 12, 14, 14, 16, 6, 8, 8, 10 ],
				"width": 18,
				"height": 51
			}
		},
		"leg2": {
			"leg": {
				"type": "mesh",
				"uvs": [ 1, 0.55242, 0.81263, 0.44201, 0.66395, 0.40615, 0.77547, 0.47508, 0.91499, 0.80125, 1, 1, 0, 0.9847, 0.06222, 0.80502, 0.25632, 0.54946, 0, 0.45265, 0, 0.27633, 0.6299, 0, 1, 0, 0.49348, 0.45928, 0.64307, 0.45336 ],
				"triangles": [ 2, 11, 12, 10, 11, 2, 1, 2, 12, 13, 9, 10, 10, 2, 13, 3, 14, 2, 14, 13, 2, 0, 1, 12, 8, 9, 13, 13, 14, 3, 8, 13, 3, 8, 3, 4, 7, 8, 4, 6, 7, 4, 5, 6, 4 ],
				"vertices": [ 68.55, -15.62, 44.09, -30.55, 37.59, -40.4, 50.95, -33.41, 121.12, -21.88, 163.88, -14.85, 164.46, -87.85, 121.69, -78.43, 60.02, -64.84, 47.88, -88.78, 10.32, -89.08, -48.9, -43.57, -49.12, -16.56, 49, -52.75, 47.66, -41.84 ],
				"hull": 13,
				"edges": [ 10, 12, 16, 26, 26, 28, 28, 6, 6, 4, 4, 2, 0, 24, 2, 0, 18, 16, 18, 20, 22, 24, 20, 22, 12, 14, 14, 16, 6, 8, 8, 10 ],
				"width": 18,
				"height": 51
			}
		},
		"tail": {
			"tail": {
				"type": "mesh",
				"uvs": [ 0, 0.25, 0, 0, 0.52303, 0, 1, 0, 1, 0.25 ],
				"triangles": [ 2, 3, 4, 0, 1, 2, 0, 2, 4 ],
				"vertices": [ 1, 6, 0.43, -53.48, 1, 1, 5, 48.55, -55.01, 1, 1, 5, 48.12, -0.62, 1, 1, 5, 47.72, 48.99, 1, 1, 6, -0.4, 50.52, 1 ],
				"hull": 5,
				"edges": [ 8, 0, 0, 2, 6, 8, 2, 4, 4, 6 ],
				"width": 25,
				"height": 112
			}
		},
		"tail2": {
			"tail": {
				"type": "mesh",
				"uvs": [ 0, 0.5, 0, 0.25, 0.51271, 0.25, 1, 0.25, 1, 0.5 ],
				"triangles": [ 2, 3, 4, 0, 1, 2, 0, 2, 4 ],
				"vertices": [ 1, 7, 0.85, -54.39, 1, 1, 6, 0.43, -53.48, 1, 1, 6, 0.01, -0.16, 1, 1, 6, -0.4, 50.52, 1, 1, 7, 0.02, 49.6, 1 ],
				"hull": 5,
				"edges": [ 8, 0, 0, 2, 6, 8, 2, 4, 4, 6 ],
				"width": 25,
				"height": 112
			}
		},
		"tail3": {
			"tail": {
				"type": "mesh",
				"uvs": [ 0, 0.75, 0, 0.5, 0.51928, 0.5, 1, 0.5, 1, 0.75 ],
				"triangles": [ 2, 3, 4, 0, 1, 2, 0, 2, 4 ],
				"vertices": [ 1, 8, 0.34, -54.32, 1, 1, 7, 0.85, -54.39, 1, 1, 7, 0.42, -0.39, 1, 1, 7, 0.02, 49.6, 1, 1, 8, -0.49, 49.67, 1 ],
				"hull": 5,
				"edges": [ 8, 0, 0, 2, 6, 8, 2, 4, 4, 6 ],
				"width": 25,
				"height": 112
			}
		},
		"tail4": {
			"tail": {
				"type": "mesh",
				"uvs": [ 1, 1, 0.49661, 1, 0, 1, 0, 0.75, 1, 0.75 ],
				"triangles": [ 4, 1, 3, 1, 4, 0, 1, 2, 3 ],
				"vertices": [ 1, 9, -0.56, 49.94, 1, 1, 9, -0.14, -2.42, 1, 1, 9, 0.27, -54.06, 1, 1, 8, 0.34, -54.32, 1, 1, 8, -0.49, 49.67, 1 ],
				"hull": 5,
				"edges": [ 6, 8, 8, 0, 4, 6, 0, 2, 2, 4 ],
				"width": 25,
				"height": 112
			}
		},
		"wing10": {
			"wing": {
				"type": "mesh",
				"uvs": [ 0.75, 0.52616, 0.75, 1, 0.5, 1, 0.5, 0, 0.75, 0 ],
				"triangles": [ 2, 3, 0, 2, 0, 1, 3, 4, 0 ],
				"vertices": [ 1, 13, -8.7, -0.15, 1, 1, 13, -217.66, 1.55, 1, 1, 14, -224.92, 1.25, 1, 1, 14, 216.07, -2.34, 1, 1, 13, 223.33, -2.04, 1 ],
				"hull": 5,
				"edges": [ 4, 6, 2, 4, 6, 8, 2, 0, 0, 8 ],
				"width": 161,
				"height": 106
			}
		},
		"wing11": {
			"wing": {
				"type": "mesh",
				"uvs": [ 0.5, 0.4891, 0.5, 1, 0.25, 1, 0.25, 0, 0.5, 0 ],
				"triangles": [ 2, 3, 0, 2, 0, 1, 3, 4, 0 ],
				"vertices": [ 1, 14, 0.38, -0.58, 1, 1, 14, -224.92, 1.25, 1, 1, 15, -227.7, 1.1, 1, 1, 15, 213.29, -2.49, 1, 1, 14, 216.07, -2.34, 1 ],
				"hull": 5,
				"edges": [ 4, 6, 2, 4, 6, 8, 2, 0, 0, 8 ],
				"width": 161,
				"height": 106
			}
		},
		"wing12": {
			"wing": {
				"type": "mesh",
				"uvs": [ 0.25, 1, 0, 1, 0, 0.56527, 0, 0, 0.25, 0 ],
				"triangles": [ 2, 0, 1, 2, 3, 4, 4, 0, 2 ],
				"vertices": [ 1, 15, -227.69, 1.1, 1, 1, 16, -227.79, -0.77, 1, 1, 16, -36.08, -2.33, 1, 1, 16, 213.19, -4.36, 1, 1, 15, 213.29, -2.49, 1 ],
				"hull": 5,
				"edges": [ 8, 0, 0, 2, 6, 8, 2, 4, 4, 6 ],
				"width": 161,
				"height": 106
			}
		},
		"wing13": {
			"wing": {
				"type": "mesh",
				"uvs": [ 1, 0.4536, 1, 1, 0.75, 1, 0.75, 0, 1, 0 ],
				"triangles": [ 2, 3, 0, 2, 0, 1, 3, 4, 0 ],
				"vertices": [ 1, 18, 28.35, -0.86, 1, 1, 18, -212.61, 1.1, 1, 1, 19, -217.66, 1.55, 1, 1, 19, 223.33, -2.04, 1, 1, 18, 228.38, -2.48, 1 ],
				"hull": 5,
				"edges": [ 4, 6, 2, 4, 6, 8, 2, 0, 0, 8 ],
				"width": 161,
				"height": 106
			}
		},
		"wing14": {
			"wing": {
				"type": "mesh",
				"uvs": [ 0.75, 0.52616, 0.75, 1, 0.5, 1, 0.5, 0, 0.75, 0 ],
				"triangles": [ 2, 3, 0, 2, 0, 1, 3, 4, 0 ],
				"vertices": [ 1, 19, -8.7, -0.15, 1, 1, 19, -217.66, 1.55, 1, 1, 20, -224.92, 1.25, 1, 1, 20, 216.07, -2.34, 1, 1, 19, 223.33, -2.04, 1 ],
				"hull": 5,
				"edges": [ 4, 6, 2, 4, 6, 8, 2, 0, 0, 8 ],
				"width": 161,
				"height": 106
			}
		},
		"wing15": {
			"wing": {
				"type": "mesh",
				"uvs": [ 0.5, 0.4891, 0.5, 1, 0.25, 1, 0.25, 0, 0.5, 0 ],
				"triangles": [ 2, 3, 0, 2, 0, 1, 3, 4, 0 ],
				"vertices": [ 1, 20, 0.38, -0.58, 1, 1, 20, -224.92, 1.25, 1, 1, 21, -227.7, 1.1, 1, 1, 21, 213.29, -2.49, 1, 1, 20, 216.07, -2.34, 1 ],
				"hull": 5,
				"edges": [ 4, 6, 2, 4, 6, 8, 2, 0, 0, 8 ],
				"width": 161,
				"height": 106
			}
		},
		"wing16": {
			"wing": {
				"type": "mesh",
				"uvs": [ 0.25, 1, 0, 1, 0, 0.56527, 0, 0, 0.25, 0 ],
				"triangles": [ 2, 0, 1, 2, 3, 4, 4, 0, 2 ],
				"vertices": [ 1, 21, -227.69, 1.1, 1, 1, 22, -227.79, -0.77, 1, 1, 22, -36.08, -2.33, 1, 1, 22, 213.19, -4.36, 1, 1, 21, 213.29, -2.49, 1 ],
				"hull": 5,
				"edges": [ 8, 0, 0, 2, 6, 8, 2, 4, 4, 6 ],
				"width": 161,
				"height": 106
			}
		},
		"wing9": {
			"wing": {
				"type": "mesh",
				"uvs": [ 1, 0.4536, 1, 1, 0.75, 1, 0.75, 0, 1, 0 ],
				"triangles": [ 2, 3, 0, 2, 0, 1, 3, 4, 0 ],
				"vertices": [ 1, 12, 28.35, -0.86, 1, 1, 12, -212.61, 1.1, 1, 1, 13, -217.66, 1.55, 1, 1, 13, 223.33, -2.04, 1, 1, 12, 228.38, -2.48, 1 ],
				"hull": 5,
				"edges": [ 4, 6, 2, 4, 6, 8, 2, 0, 0, 8 ],
				"width": 161,
				"height": 106
			}
		}
	}
},
"animations": {
	"fly": {
		"slots": {
			"tail2": {
				"color": [
					{
						"time": 0,
						"color": "d8d8d8ff",
						"curve": [ 0.25, 0, 0.75, 1 ]
					},
					{
						"time": 0.3333,
						"color": "c3c3c3ff",
						"curve": [ 0.25, 0, 0.75, 1 ]
					},
					{
						"time": 0.4,
						"color": "c2c2c2ff",
						"curve": [ 0.25, 0, 0.75, 1 ]
					},
					{
						"time": 1.4,
						"color": "ffffffff",
						"curve": [ 0.25, 0, 0.75, 1 ]
					},
					{ "time": 2, "color": "d8d8d8ff" }
				]
			},
			"tail3": {
				"color": [
					{
						"time": 0,
						"color": "c3c3c3ff",
						"curve": [ 0.25, 0, 0.75, 1 ]
					},
					{
						"time": 0.3333,
						"color": "999999ff",
						"curve": [ 0.25, 0, 0.75, 1 ]
					},
					{
						"time": 0.4667,
						"color": "929292ff",
						"curve": [ 0.25, 0, 0.75, 1 ]
					},
					{
						"time": 1.4667,
						"color": "ffffffff",
						"curve": [ 0.25, 0, 0.75, 1 ]
					},
					{ "time": 2, "color": "c3c3c3ff" }
				]
			},
			"tail4": {
				"color": [
					{
						"time": 0,
						"color": "b5b5b5ff",
						"curve": [ 0.25, 0, 0.75, 1 ]
					},
					{
						"time": 0.3333,
						"color": "747474ff",
						"curve": [ 0.25, 0, 0.75, 1 ]
					},
					{
						"time": 0.5333,
						"color": "606060ff",
						"curve": [ 0.25, 0, 0.75, 1 ]
					},
					{
						"time": 1.5333,
						"color": "ffffffff",
						"curve": [ 0.25, 0, 0.75, 1 ]
					},
					{ "time": 2, "color": "b5b5b5ff" }
				]
			},
			"wing9": {
				"color": [
					{
						"time": 0,
						"color": "cececeff",
						"curve": [ 0.25, 0, 0.75, 1 ]
					},
					{
						"time": 0.0667,
						"color": "c4c4c4ff",
						"curve": [ 0.25, 0, 0.75, 1 ]
					},
					{
						"time": 1.4,
						"color": "ffffffff",
						"curve": [ 0.25, 0, 0.75, 1 ]
					},
					{ "time": 2, "color": "cececeff" }
				]
			},
			"wing10": {
				"color": [
					{
						"time": 0,
						"color": "c6c6c6ff",
						"curve": [ 0.25, 0, 0.75, 1 ]
					},
					{
						"time": 0.1333,
						"color": "aaaaaaff",
						"curve": [ 0.25, 0, 0.75, 1 ]
					},
					{
						"time": 1.4667,
						"color": "ffffffff",
						"curve": [ 0.25, 0, 0.75, 1 ]
					},
					{ "time": 2, "color": "c6c6c6ff" }
				]
			},
			"wing11": {
				"color": [
					{
						"time": 0,
						"color": "c2c2c2ff",
						"curve": [ 0.25, 0, 0.75, 1 ]
					},
					{
						"time": 0.2,
						"color": "8b8b8bff",
						"curve": [ 0.25, 0, 0.75, 1 ]
					},
					{
						"time": 1.5333,
						"color": "ffffffff",
						"curve": [ 0.25, 0, 0.75, 1 ]
					},
					{ "time": 2, "color": "c2c2c2ff" }
				]
			},
			"wing12": {
				"color": [
					{
						"time": 0,
						"color": "cdcdcdff",
						"curve": [ 0.25, 0, 0.75, 1 ]
					},
					{
						"time": 0.3,
						"color": "6c6c6cff",
						"curve": [ 0.25, 0, 0.75, 1 ]
					},
					{
						"time": 1.6333,
						"color": "ffffffff",
						"curve": [ 0.25, 0, 0.75, 1 ]
					},
					{ "time": 2, "color": "cdcdcdff" }
				]
			},
			"wing13": {
				"color": [
					{
						"time": 0,
						"color": "cececeff",
						"curve": [ 0.25, 0, 0.75, 1 ]
					},
					{
						"time": 0.0667,
						"color": "c4c4c4ff",
						"curve": [ 0.25, 0, 0.75, 1 ]
					},
					{
						"time": 1.4,
						"color": "ffffffff",
						"curve": [ 0.25, 0, 0.75, 1 ]
					},
					{ "time": 2, "color": "cececeff" }
				]
			},
			"wing14": {
				"color": [
					{
						"time": 0,
						"color": "c6c6c6ff",
						"curve": [ 0.25, 0, 0.75, 1 ]
					},
					{
						"time": 0.1333,
						"color": "aaaaaaff",
						"curve": [ 0.25, 0, 0.75, 1 ]
					},
					{
						"time": 1.4667,
						"color": "ffffffff",
						"curve": [ 0.25, 0, 0.75, 1 ]
					},
					{ "time": 2, "color": "c6c6c6ff" }
				]
			},
			"wing15": {
				"color": [
					{
						"time": 0,
						"color": "c2c2c2ff",
						"curve": [ 0.25, 0, 0.75, 1 ]
					},
					{
						"time": 0.2,
						"color": "8b8b8bff",
						"curve": [ 0.25, 0, 0.75, 1 ]
					},
					{
						"time": 1.5333,
						"color": "ffffffff",
						"curve": [ 0.25, 0, 0.75, 1 ]
					},
					{ "time": 2, "color": "c2c2c2ff" }
				]
			},
			"wing16": {
				"color": [
					{
						"time": 0,
						"color": "cdcdcdff",
						"curve": [ 0.25, 0, 0.75, 1 ]
					},
					{
						"time": 0.3,
						"color": "6c6c6cff",
						"curve": [ 0.25, 0, 0.75, 1 ]
					},
					{
						"time": 1.6333,
						"color": "ffffffff",
						"curve": [ 0.25, 0, 0.75, 1 ]
					},
					{ "time": 2, "color": "cdcdcdff" }
				]
			}
		},
		"bones": {
			"tail3": {
				"translate": [
					{
						"time": 0,
						"x": -6.11,
						"y": -0.05,
						"curve": [ 0.25, 0, 0.75, 1 ]
					},
					{
						"time": 0.3333,
						"x": -42.99,
						"y": -0.37,
						"curve": [ 0.25, 0, 0.75, 1 ]
					},
					{
						"time": 0.4,
						"x": -46.2,
						"y": -0.39,
						"curve": [ 0.25, 0, 0.75, 1 ]
					},
					{
						"time": 0.9,
						"x": 0,
						"y": 0,
						"curve": [ 0.25, 0, 0.75, 1 ]
					},
					{
						"time": 1.4,
						"x": -46.2,
						"y": -0.39,
						"curve": [ 0.25, 0, 0.75, 1 ]
					},
					{
						"time": 1.9,
						"x": 0,
						"y": 0,
						"curve": [ 0.25, 0, 0.75, 1 ]
					},
					{ "time": 2, "x": -6.11, "y": -0.05 }
				],
				"scale": [
					{
						"time": 0,
						"x": 0,
						"y": 0.973,
						"curve": [ 0.25, 0, 0.75, 1 ]
					},
					{
						"time": 0.3333,
						"x": 0,
						"y": 0.905,
						"curve": [ 0.25, 0, 0.75, 1 ]
					},
					{
						"time": 0.4,
						"x": 0,
						"y": 0.9,
						"curve": [ 0.25, 0, 0.75, 1 ]
					},
					{
						"time": 1.4,
						"x": 0,
						"y": 1.1,
						"curve": [ 0.25, 0, 0.75, 1 ]
					},
					{ "time": 2, "x": 0, "y": 0.973 }
				]
			},
			"tail5": {
				"translate": [
					{
						"time": 0,
						"x": -2.05,
						"y": -0.02,
						"curve": [ 0.25, 0, 0.75, 1 ]
					},
					{
						"time": 0.3333,
						"x": -77.69,
						"y": -0.66,
						"curve": [ 0.25, 0, 0.75, 1 ]
					},
					{
						"time": 0.4667,
						"x": -97.43,
						"y": -0.83,
						"curve": [ 0.25, 0, 0.75, 1 ]
					},
					{
						"time": 0.9667,
						"x": 0,
						"y": 0,
						"curve": [ 0.25, 0, 0.75, 1 ]
					},
					{
						"time": 1.4667,
						"x": -97.43,
						"y": -0.83,
						"curve": [ 0.25, 0, 0.75, 1 ]
					},
					{
						"time": 1.9667,
						"x": 0,
						"y": 0,
						"curve": [ 0.25, 0, 0.75, 1 ]
					},
					{ "time": 2, "x": -2.05, "y": -0.02 }
				],
				"scale": [
					{
						"time": 0,
						"x": 0,
						"y": 0.98,
						"curve": [ 0.25, 0, 0.75, 1 ]
					},
					{
						"time": 0.3333,
						"x": 0,
						"y": 0.828,
						"curve": [ 0.25, 0, 0.75, 1 ]
					},
					{
						"time": 0.4667,
						"x": 0,
						"y": 0.8,
						"curve": [ 0.25, 0, 0.75, 1 ]
					},
					{
						"time": 1.4667,
						"x": 0,
						"y": 1.2,
						"curve": [ 0.25, 0, 0.75, 1 ]
					},
					{ "time": 2, "x": 0, "y": 0.98 }
				]
			},
			"tail4": {
				"translate": [
					{
						"time": 0,
						"x": -3.56,
						"y": -0.03,
						"curve": [ 0.25, 0, 0.75, 1 ]
					},
					{
						"time": 0.0333,
						"x": 0,
						"y": 0,
						"curve": [ 0.25, 0, 0.75, 1 ]
					},
					{
						"time": 0.3333,
						"x": -98.74,
						"y": -0.84,
						"curve": [ 0.25, 0, 0.75, 1 ]
					},
					{
						"time": 0.5333,
						"x": -156.2,
						"y": -1.34,
						"curve": [ 0.25, 0, 0.75, 1 ]
					},
					{
						"time": 1.0333,
						"x": 0,
						"y": 0,
						"curve": [ 0.25, 0, 0.75, 1 ]
					},
					{
						"time": 1.5333,
						"x": -156.2,
						"y": -1.34,
						"curve": [ 0.25, 0, 0.75, 1 ]
					},
					{ "time": 2, "x": -3.56, "y": -0.03 }
				],
				"scale": [
					{
						"time": 0,
						"x": 0,
						"y": 0.978,
						"curve": [ 0.25, 0, 0.75, 1 ]
					},
					{
						"time": 0.3333,
						"x": 0,
						"y": 0.691,
						"curve": [ 0.25, 0, 0.75, 1 ]
					},
					{
						"time": 0.5333,
						"x": 0,
						"y": 0.6,
						"curve": [ 0.25, 0, 0.75, 1 ]
					},
					{
						"time": 1.5333,
						"x": 0,
						"y": 1.3,
						"curve": [ 0.25, 0, 0.75, 1 ]
					},
					{ "time": 2, "x": 0, "y": 0.978 }
				]
			},
			"wing12": {
				"translate": [
					{
						"time": 0,
						"x": -0.76,
						"y": -93.33,
						"curve": [ 0.25, 0, 0.75, 1 ]
					},
					{
						"time": 0.3333,
						"x": -0.58,
						"y": -71.29,
						"curve": [ 0.25, 0, 0.75, 1 ]
					},
					{
						"time": 0.7333,
						"x": -0.28,
						"y": -33.9,
						"curve": [ 0.25, 0, 0.75, 1 ]
					},
					{
						"time": 1.4,
						"x": -0.84,
						"y": -103.07,
						"curve": [ 0.25, 0, 0.75, 1 ]
					},
					{
						"time": 1.7333,
						"x": 0.22,
						"y": 27.26,
						"curve": [ 0.25, 0, 0.75, 1 ]
					},
					{ "time": 2, "x": -0.76, "y": -93.33 }
				],
				"scale": [
					{
						"time": 0,
						"x": 0.936,
						"y": 0,
						"curve": [ 0.25, 0, 0.75, 1 ]
					},
					{
						"time": 0.0667,
						"x": 0.9,
						"y": 0,
						"curve": [ 0.25, 0, 0.75, 1 ]
					},
					{
						"time": 1.4,
						"x": 1.1,
						"y": 0,
						"curve": [ 0.25, 0, 0.75, 1 ]
					},
					{ "time": 2, "x": 0.936, "y": 0 }
				]
			},
			"wing13": {
				"translate": [
					{
						"time": 0,
						"x": -1.23,
						"y": -151.14,
						"curve": [ 0.25, 0, 0.75, 1 ]
					},
					{
						"time": 0.1333,
						"x": -1.67,
						"y": -205.89,
						"curve": [ 0.25, 0, 0.75, 1 ]
					},
					{
						"time": 0.8,
						"x": -0.42,
						"y": -52.25,
						"curve": [ 0.25, 0, 0.75, 1 ]
					},
					{
						"time": 1.4667,
						"x": -1.6,
						"y": -196.89,
						"curve": [ 0.25, 0, 0.75, 1 ]
					},
					{
						"time": 1.8,
						"x": 0.24,
						"y": 29.36,
						"curve": [ 0.25, 0, 0.75, 1 ]
					},
					{ "time": 2, "x": -1.23, "y": -151.14 }
				],
				"scale": [
					{
						"time": 0,
						"x": 0.935,
						"y": 0,
						"curve": [ 0.25, 0, 0.75, 1 ]
					},
					{
						"time": 0.1333,
						"x": 0.8,
						"y": 0,
						"curve": [ 0.25, 0, 0.75, 1 ]
					},
					{
						"time": 1.4667,
						"x": 1.2,
						"y": 0,
						"curve": [ 0.25, 0, 0.75, 1 ]
					},
					{ "time": 2, "x": 0.935, "y": 0 }
				]
			},
			"wing14": {
				"translate": [
					{
						"time": 0,
						"x": -1.23,
						"y": -151.46,
						"curve": [ 0.25, 0, 0.75, 1 ]
					},
					{
						"time": 0.2,
						"x": -2.49,
						"y": -305.84,
						"curve": [ 0.25, 0, 0.75, 1 ]
					},
					{
						"time": 0.8667,
						"x": -1.03,
						"y": -126.35,
						"curve": [ 0.25, 0, 0.75, 1 ]
					},
					{
						"time": 1.5333,
						"x": -2.34,
						"y": -287.84,
						"curve": [ 0.25, 0, 0.75, 1 ]
					},
					{
						"time": 1.8667,
						"x": -0.62,
						"y": -76.64,
						"curve": [ 0.25, 0, 0.75, 1 ]
					},
					{ "time": 2, "x": -1.23, "y": -151.46 }
				],
				"scale": [
					{
						"time": 0,
						"x": 0.988,
						"y": 0,
						"curve": [ 0.25, 0, 0.75, 1 ]
					},
					{
						"time": 0.2,
						"x": 0.7,
						"y": 0,
						"curve": [ 0.25, 0, 0.75, 1 ]
					},
					{
						"time": 1.5333,
						"x": 1.3,
						"y": 0,
						"curve": [ 0.25, 0, 0.75, 1 ]
					},
					{ "time": 2, "x": 0.988, "y": 0 }
				]
			},
			"wing15": {
				"translate": [
					{
						"time": 0,
						"x": -0.52,
						"y": -64.39,
						"curve": [ 0.25, 0, 0.75, 1 ]
					},
					{
						"time": 0.3,
						"x": -3.42,
						"y": -420.63,
						"curve": [ 0.25, 0, 0.75, 1 ]
					},
					{
						"time": 0.6667,
						"x": -2.49,
						"y": -305.79,
						"curve": [ 0.25, 0, 0.75, 1 ]
					},
					{
						"time": 0.9667,
						"x": -2.06,
						"y": -252.84,
						"curve": [ 0.25, 0, 0.75, 1 ]
					},
					{
						"time": 1.6333,
						"x": -3.05,
						"y": -375.64,
						"curve": [ 0.25, 0, 0.75, 1 ]
					},
					{
						"time": 1.8333,
						"x": -1.77,
						"y": -217.71,
						"curve": [ 0.25, 0, 0.75, 1 ]
					},
					{ "time": 2, "x": -0.52, "y": -64.39 }
				],
				"scale": [
					{
						"time": 0,
						"x": 1.131,
						"y": 0,
						"curve": [ 0.25, 0, 0.75, 1 ]
					},
					{
						"time": 0.3,
						"x": 0.6,
						"y": 0,
						"curve": [ 0.25, 0, 0.75, 1 ]
					},
					{
						"time": 1.6333,
						"x": 1.4,
						"y": 0,
						"curve": [ 0.25, 0, 0.75, 1 ]
					},
					{ "time": 2, "x": 1.131, "y": 0 }
				]
			},
			"wing17": {
				"translate": [
					{
						"time": 0,
						"x": -0.76,
						"y": -93.33,
						"curve": [ 0.25, 0, 0.75, 1 ]
					},
					{
						"time": 0.3333,
						"x": -0.58,
						"y": -71.29,
						"curve": [ 0.25, 0, 0.75, 1 ]
					},
					{
						"time": 0.7333,
						"x": -0.28,
						"y": -33.9,
						"curve": [ 0.25, 0, 0.75, 1 ]
					},
					{
						"time": 1.4,
						"x": -0.84,
						"y": -103.07,
						"curve": [ 0.25, 0, 0.75, 1 ]
					},
					{
						"time": 1.7333,
						"x": 0.22,
						"y": 27.26,
						"curve": [ 0.25, 0, 0.75, 1 ]
					},
					{ "time": 2, "x": -0.76, "y": -93.33 }
				],
				"scale": [
					{
						"time": 0,
						"x": 0.936,
						"y": 0,
						"curve": [ 0.25, 0, 0.75, 1 ]
					},
					{
						"time": 0.0667,
						"x": 0.9,
						"y": 0,
						"curve": [ 0.25, 0, 0.75, 1 ]
					},
					{
						"time": 1.4,
						"x": 1.1,
						"y": 0,
						"curve": [ 0.25, 0, 0.75, 1 ]
					},
					{ "time": 2, "x": 0.936, "y": 0 }
				]
			},
			"wing18": {
				"translate": [
					{
						"time": 0,
						"x": -1.23,
						"y": -151.14,
						"curve": [ 0.25, 0, 0.75, 1 ]
					},
					{
						"time": 0.1333,
						"x": -1.67,
						"y": -205.89,
						"curve": [ 0.25, 0, 0.75, 1 ]
					},
					{
						"time": 0.8,
						"x": -0.42,
						"y": -52.25,
						"curve": [ 0.25, 0, 0.75, 1 ]
					},
					{
						"time": 1.4667,
						"x": -1.6,
						"y": -196.89,
						"curve": [ 0.25, 0, 0.75, 1 ]
					},
					{
						"time": 1.8,
						"x": 0.24,
						"y": 29.36,
						"curve": [ 0.25, 0, 0.75, 1 ]
					},
					{ "time": 2, "x": -1.23, "y": -151.14 }
				],
				"scale": [
					{
						"time": 0,
						"x": 0.935,
						"y": 0,
						"curve": [ 0.25, 0, 0.75, 1 ]
					},
					{
						"time": 0.1333,
						"x": 0.8,
						"y": 0,
						"curve": [ 0.25, 0, 0.75, 1 ]
					},
					{
						"time": 1.4667,
						"x": 1.2,
						"y": 0,
						"curve": [ 0.25, 0, 0.75, 1 ]
					},
					{ "time": 2, "x": 0.935, "y": 0 }
				]
			},
			"wing19": {
				"translate": [
					{
						"time": 0,
						"x": -1.23,
						"y": -151.46,
						"curve": [ 0.25, 0, 0.75, 1 ]
					},
					{
						"time": 0.2,
						"x": -2.49,
						"y": -305.84,
						"curve": [ 0.25, 0, 0.75, 1 ]
					},
					{
						"time": 0.8667,
						"x": -1.03,
						"y": -126.35,
						"curve": [ 0.25, 0, 0.75, 1 ]
					},
					{
						"time": 1.5333,
						"x": -2.34,
						"y": -287.84,
						"curve": [ 0.25, 0, 0.75, 1 ]
					},
					{
						"time": 1.8667,
						"x": -0.62,
						"y": -76.64,
						"curve": [ 0.25, 0, 0.75, 1 ]
					},
					{ "time": 2, "x": -1.23, "y": -151.46 }
				],
				"scale": [
					{
						"time": 0,
						"x": 0.988,
						"y": 0,
						"curve": [ 0.25, 0, 0.75, 1 ]
					},
					{
						"time": 0.2,
						"x": 0.7,
						"y": 0,
						"curve": [ 0.25, 0, 0.75, 1 ]
					},
					{
						"time": 1.5333,
						"x": 1.3,
						"y": 0,
						"curve": [ 0.25, 0, 0.75, 1 ]
					},
					{ "time": 2, "x": 0.988, "y": 0 }
				]
			},
			"wing20": {
				"translate": [
					{
						"time": 0,
						"x": -0.52,
						"y": -64.39,
						"curve": [ 0.25, 0, 0.75, 1 ]
					},
					{
						"time": 0.3,
						"x": -3.42,
						"y": -420.63,
						"curve": [ 0.25, 0, 0.75, 1 ]
					},
					{
						"time": 0.6667,
						"x": -2.49,
						"y": -305.79,
						"curve": [ 0.25, 0, 0.75, 1 ]
					},
					{
						"time": 0.9667,
						"x": -2.06,
						"y": -252.84,
						"curve": [ 0.25, 0, 0.75, 1 ]
					},
					{
						"time": 1.6333,
						"x": -3.05,
						"y": -375.64,
						"curve": [ 0.25, 0, 0.75, 1 ]
					},
					{
						"time": 1.8333,
						"x": -1.77,
						"y": -217.71,
						"curve": [ 0.25, 0, 0.75, 1 ]
					},
					{ "time": 2, "x": -0.52, "y": -64.39 }
				],
				"scale": [
					{
						"time": 0,
						"x": 1.131,
						"y": 0,
						"curve": [ 0.25, 0, 0.75, 1 ]
					},
					{
						"time": 0.3,
						"x": 0.6,
						"y": 0,
						"curve": [ 0.25, 0, 0.75, 1 ]
					},
					{
						"time": 1.6333,
						"x": 1.4,
						"y": 0,
						"curve": [ 0.25, 0, 0.75, 1 ]
					},
					{ "time": 2, "x": 1.131, "y": 0 }
				]
			},
			"body4": {
				"translate": [
					{
						"time": 0,
						"x": 7.9,
						"y": 0,
						"curve": [ 0.25, 0, 0.75, 1 ]
					},
					{
						"time": 0.6,
						"x": 0,
						"y": 0,
						"curve": [ 0.25, 0, 0.75, 1 ]
					},
					{
						"time": 1.6,
						"x": 12.49,
						"y": 0,
						"curve": [ 0.25, 0, 0.75, 1 ]
					},
					{ "time": 2, "x": 7.9, "y": 0 }
				]
			},
			"body5": {
				"translate": [
					{
						"time": 0,
						"x": -16.02,
						"y": 0,
						"curve": [ 0.25, 0, 0.75, 1 ]
					},
					{
						"time": 0.7333,
						"x": 0,
						"y": 0,
						"curve": [ 0.25, 0, 0.75, 1 ]
					},
					{
						"time": 1.7,
						"x": -18.2,
						"y": 0,
						"curve": [ 0.25, 0, 0.75, 1 ]
					},
					{ "time": 2, "x": -16.02, "y": 0 }
				]
			},
			"wing11": {
				"translate": [
					{ "time": 0.6, "x": 0, "y": 0, "curve": "stepped" },
					{ "time": 1.6, "x": 0, "y": 0 }
				]
			},
			"tail": {
				"translate": [
					{
						"time": 0,
						"x": -5.51,
						"y": -0.05,
						"curve": [ 0.25, 0, 0.75, 1 ]
					},
					{
						"time": 0.3333,
						"x": -19.42,
						"y": -0.17,
						"curve": [ 0.25, 0, 0.75, 1 ]
					},
					{
						"time": 0.8333,
						"x": 0,
						"y": 0,
						"curve": [ 0.25, 0, 0.75, 1 ]
					},
					{
						"time": 1.3333,
						"x": -19.42,
						"y": -0.17,
						"curve": [ 0.25, 0, 0.75, 1 ]
					},
					{
						"time": 1.8333,
						"x": 0,
						"y": 0,
						"curve": [ 0.25, 0, 0.75, 1 ]
					},
					{ "time": 2, "x": -5.51, "y": -0.05 }
				]
			},
			"wing16": {
				"translate": [
					{ "time": 0.6, "x": 0, "y": 0, "curve": "stepped" },
					{ "time": 1.6, "x": 0, "y": 0 }
				]
			}
		},
		"deform": {
			"default": {
				"Head": {
					"Head": [
						{
							"time": 0,
							"offset": 2,
							"vertices": [ 4.41072, -5.46512, 4.41072, -5.45943, 4.4107, -0.06162, 4.41071, 5.43333, 4.4107, 5.42712, -1.0E-5, -2.0E-5, -2.64318, -1.11204, -2.64318, 1.11203, 0, 0, -1.0E-5, 0, -0.46447, 2.66506, 0.35084, 1.34087, -2.36913, 6.16974, -4.66629, 0.97749, -4.46755, -0.59555, -6.41827, -6.50497, 0.99508, -1.22119, -3.52871, -2.48893, 2.3005, 0, 2.3005, 0, -2.0E-5, 0, 0, 0, 0.74208, 0, -8.33026, 0, 0.74207, 0, -1.0E-5, 0, 0, 0, 2.30049, 0, 2.3005 ],
							"curve": [ 0.25, 0, 0.75, 1 ]
						},
						{
							"time": 0.3333,
							"offset": 22,
							"vertices": [ -4.23238, -1.0E-5, -2.0E-5, 0, -3.64248, 6.70696, -7.8537, 0, -7.85368, 0, -9.34955, -7.01961, 0, 0, -7.41579, 1.0E-5, -1.0E-5, 0, -1.0E-5, 0, -2.0E-5, 0, 0, 0, -2.0E-5, 0, -13.46768 ],
							"curve": [ 0.25, 0, 0.75, 1 ]
						},
						{
							"time": 1.3,
							"offset": 2,
							"vertices": [ 22.10845, -27.3936, 22.10845, -27.36511, 22.10841, -0.30885, 22.10842, 27.23428, 22.10842, 27.2031, -1.0E-5, -2.0E-5, -13.249, -5.57401, -13.24899, 5.57401, 0, 0, -1.0E-5, 0, 14.65402, 13.35848, 1.75865, 6.72107, 2.74011, 4.01413, 8.12298, 4.89963, 9.11907, -2.98516, 5.34334, -4.43998, 4.98779, -6.12117, 12.06796, -12.47564, 11.53115, 0, 11.53115, 0, -2.0E-5, 0, 0, 0, 3.71972, 0, 12.28333, 0, 3.71971, 0, -1.0E-5, 0, 0, 0, 11.53114, 0, 11.53115 ],
							"curve": [ 0.25, 0, 0.75, 1 ]
						},
						{
							"time": 2,
							"offset": 2,
							"vertices": [ 4.41072, -5.46512, 4.41072, -5.45943, 4.4107, -0.06162, 4.41071, 5.43333, 4.4107, 5.42712, -1.0E-5, -2.0E-5, -2.64318, -1.11204, -2.64318, 1.11203, 0, 0, -1.0E-5, 0, -0.46447, 2.66506, 0.35084, 1.34087, -2.36913, 6.16974, -4.66629, 0.97749, -4.46755, -0.59555, -6.41827, -6.50497, 0.99508, -1.22119, -3.52871, -2.48893, 2.3005, 0, 2.3005, 0, -2.0E-5, 0, 0, 0, 0.74208, 0, -8.33026, 0, 0.74207, 0, -1.0E-5, 0, 0, 0, 2.30049, 0, 2.3005 ]
						}
					]
				},
				"leg": {
					"leg": [
						{
							"time": 0,
							"offset": 6,
							"vertices": [ 3.14742, 0.59731, -0.20568, -0.80971, -2.0024, -1.79096, -2.0024, 1.8241, -0.20568, 0.77571, 3.14743, -0.60264, 3.0E-5, 0, 4.0E-5, 0, 3.0E-5, 1.0E-5, 3.0E-5, 0, 3.14742, -0.14095, 3.14742, 0.27559 ],
							"curve": [ 0.25, 0, 0.75, 1 ]
						},
						{
							"time": 0.3333,
							"curve": [ 0.25, 0, 0.75, 1 ]
						},
						{
							"time": 1.3,
							"offset": 6,
							"vertices": [ 19.27921, 3.65877, -1.25993, -4.95982, -12.26552, -10.97042, -12.26558, 11.17338, -1.25994, 4.75155, 19.27923, -3.69142, 3.0E-5, 0, 4.0E-5, 0, 3.0E-5, 1.0E-5, 3.0E-5, 0, 19.2792, -0.8634, 19.2792, 1.68805 ],
							"curve": [ 0.25, 0, 0.75, 1 ]
						},
						{
							"time": 2,
							"offset": 6,
							"vertices": [ 3.14742, 0.59731, -0.20568, -0.80971, -2.0024, -1.79096, -2.0024, 1.8241, -0.20568, 0.77571, 3.14743, -0.60264, 3.0E-5, 0, 4.0E-5, 0, 3.0E-5, 1.0E-5, 3.0E-5, 0, 3.14742, -0.14095, 3.14742, 0.27559 ]
						}
					]
				},
				"leg2": {
					"leg": [
						{
							"time": 0,
							"offset": 6,
							"vertices": [ 13.65067, 2.5906, -0.89208, -3.5118, -8.68462, -7.76763, -8.6846, 7.91133, -0.89209, 3.36435, 13.6507, -2.61371, 2.0E-5, 2.0E-5, 4.0E-5, 2.0E-5, 2.0E-5, 0, 3.0E-5, 0, 13.65069, -0.61132, 13.65068, 1.19521 ],
							"curve": [ 0.25, 0, 0.75, 1 ]
						},
						{
							"time": 0.1667,
							"offset": 6,
							"vertices": [ 3.14742, 0.59731, -0.20567, -0.80971, -2.0024, -1.79096, -2.00233, 1.8241, -0.20567, 0.77572, 3.14744, -0.60263, 2.0E-5, 2.0E-5, 4.0E-5, 2.0E-5, 2.0E-5, 0, 3.0E-5, 0, 3.14744, -0.14094, 3.14743, 0.27559 ],
							"curve": [ 0.25, 0, 0.75, 1 ]
						},
						{
							"time": 0.5,
							"curve": [ 0.25, 0, 0.75, 1 ]
						},
						{
							"time": 1.4667,
							"offset": 6,
							"vertices": [ 19.27921, 3.65877, -1.25992, -4.95982, -12.26552, -10.97042, -12.26552, 11.17339, -1.25993, 4.75156, 19.27923, -3.69141, 2.0E-5, 2.0E-5, 4.0E-5, 2.0E-5, 2.0E-5, 0, 3.0E-5, 0, 19.27921, -0.86339, 19.27921, 1.68803 ],
							"curve": [ 0.25, 0, 0.75, 1 ]
						},
						{
							"time": 2,
							"offset": 6,
							"vertices": [ 13.65067, 2.5906, -0.89208, -3.5118, -8.68462, -7.76763, -8.6846, 7.91133, -0.89209, 3.36435, 13.6507, -2.61371, 2.0E-5, 2.0E-5, 4.0E-5, 2.0E-5, 2.0E-5, 0, 3.0E-5, 0, 13.65069, -0.61132, 13.65068, 1.19521 ]
						}
					]
				}
			}
		}
	}
}
}